LAB4/Lab4_part2/simulation/qsim/Lab4_part2.msim.vcd
$comment
	File created using the following command:
		vcd file Lab4_part2.msim.vcd -direction
$end
$date
	Mon Mar 18 17:47:03 2024
$end
$version
	ModelSim Version 2020.1
$end
$timescale
	1ps
$end

$scope module Lab4_part2_vlg_vec_tst $end
$var reg 1 ! CLEAR $end
$var reg 1 " CLK $end
$var reg 1 # IN $end
$var reg 8 $ Min [7:0] $end
$var reg 1 % Out $end
$var reg 8 & Qin [7:0] $end
$var reg 1 ' inM $end
$var reg 1 ( inQ $end
$var wire 1 ) CAT [3] $end
$var wire 1 * CAT [2] $end
$var wire 1 + CAT [1] $end
$var wire 1 , CAT [0] $end
$var wire 1 - H $end
$var wire 1 . HEX [0] $end
$var wire 1 / HEX [1] $end
$var wire 1 0 HEX [2] $end
$var wire 1 1 HEX [3] $end
$var wire 1 2 HEX [4] $end
$var wire 1 3 HEX [5] $end
$var wire 1 4 HEX [6] $end
$var wire 1 5 Mout [0] $end
$var wire 1 6 Mout [1] $end
$var wire 1 7 Mout [2] $end
$var wire 1 8 Mout [3] $end
$var wire 1 9 Mout [4] $end
$var wire 1 : Mout [5] $end
$var wire 1 ; Mout [6] $end
$var wire 1 < Mout [7] $end
$var wire 1 = Mout [8] $end
$var wire 1 > Mout [9] $end
$var wire 1 ? Mout [10] $end
$var wire 1 @ Mout [11] $end
$var wire 1 A Mout [12] $end
$var wire 1 B Mout [13] $end
$var wire 1 C Pout [15] $end
$var wire 1 D Pout [14] $end
$var wire 1 E Pout [13] $end
$var wire 1 F Pout [12] $end
$var wire 1 G Pout [11] $end
$var wire 1 H Pout [10] $end
$var wire 1 I Pout [9] $end
$var wire 1 J Pout [8] $end
$var wire 1 K Pout [7] $end
$var wire 1 L Pout [6] $end
$var wire 1 M Pout [5] $end
$var wire 1 N Pout [4] $end
$var wire 1 O Pout [3] $end
$var wire 1 P Pout [2] $end
$var wire 1 Q Pout [1] $end
$var wire 1 R Pout [0] $end
$var wire 1 S Qout [0] $end
$var wire 1 T Qout [1] $end
$var wire 1 U Qout [2] $end
$var wire 1 V Qout [3] $end
$var wire 1 W Qout [4] $end
$var wire 1 X Qout [5] $end
$var wire 1 Y Qout [6] $end
$var wire 1 Z Qout [7] $end
$var wire 1 [ Qout [8] $end
$var wire 1 \ Qout [9] $end
$var wire 1 ] Qout [10] $end
$var wire 1 ^ Qout [11] $end
$var wire 1 _ Qout [12] $end
$var wire 1 ` Qout [13] $end

$scope module i1 $end
$var wire 1 a gnd $end
$var wire 1 b vcc $end
$var wire 1 c unknown $end
$var tri1 1 d devclrn $end
$var tri1 1 e devpor $end
$var tri1 1 f devoe $end
$var wire 1 g inM~input_o $end
$var wire 1 h inQ~input_o $end
$var wire 1 i ~QUARTUS_CREATED_GND~I_combout $end
$var wire 1 j ~QUARTUS_CREATED_UNVM~~busy $end
$var wire 1 k ~QUARTUS_CREATED_ADC1~~eoc $end
$var wire 1 l ~QUARTUS_CREATED_ADC2~~eoc $end
$var wire 1 m Pout[0]~output_o $end
$var wire 1 n Pout[1]~output_o $end
$var wire 1 o Pout[2]~output_o $end
$var wire 1 p Pout[3]~output_o $end
$var wire 1 q Pout[4]~output_o $end
$var wire 1 r Pout[5]~output_o $end
$var wire 1 s Pout[6]~output_o $end
$var wire 1 t Pout[7]~output_o $end
$var wire 1 u Pout[8]~output_o $end
$var wire 1 v Pout[9]~output_o $end
$var wire 1 w Pout[10]~output_o $end
$var wire 1 x Pout[11]~output_o $end
$var wire 1 y Pout[12]~output_o $end
$var wire 1 z Pout[13]~output_o $end
$var wire 1 { Pout[14]~output_o $end
$var wire 1 | Pout[15]~output_o $end
$var wire 1 } Mout[13]~output_o $end
$var wire 1 ~ Mout[12]~output_o $end
$var wire 1 !! Mout[11]~output_o $end
$var wire 1 "! Mout[10]~output_o $end
$var wire 1 #! Mout[9]~output_o $end
$var wire 1 $! Mout[8]~output_o $end
$var wire 1 %! Mout[7]~output_o $end
$var wire 1 &! Mout[6]~output_o $end
$var wire 1 '! Mout[5]~output_o $end
$var wire 1 (! Mout[4]~output_o $end
$var wire 1 )! Mout[3]~output_o $end
$var wire 1 *! Mout[2]~output_o $end
$var wire 1 +! Mout[1]~output_o $end
$var wire 1 ,! Mout[0]~output_o $end
$var wire 1 -! Qout[13]~output_o $end
$var wire 1 .! Qout[12]~output_o $end
$var wire 1 /! Qout[11]~output_o $end
$var wire 1 0! Qout[10]~output_o $end
$var wire 1 1! Qout[9]~output_o $end
$var wire 1 2! Qout[8]~output_o $end
$var wire 1 3! Qout[7]~output_o $end
$var wire 1 4! Qout[6]~output_o $end
$var wire 1 5! Qout[5]~output_o $end
$var wire 1 6! Qout[4]~output_o $end
$var wire 1 7! Qout[3]~output_o $end
$var wire 1 8! Qout[2]~output_o $end
$var wire 1 9! Qout[1]~output_o $end
$var wire 1 :! Qout[0]~output_o $end
$var wire 1 ;! HEX[6]~output_o $end
$var wire 1 <! HEX[5]~output_o $end
$var wire 1 =! HEX[4]~output_o $end
$var wire 1 >! HEX[3]~output_o $end
$var wire 1 ?! HEX[2]~output_o $end
$var wire 1 @! HEX[1]~output_o $end
$var wire 1 A! HEX[0]~output_o $end
$var wire 1 B! CAT[0]~output_o $end
$var wire 1 C! CAT[1]~output_o $end
$var wire 1 D! CAT[2]~output_o $end
$var wire 1 E! CAT[3]~output_o $end
$var wire 1 F! H~output_o $end
$var wire 1 G! CLK~input_o $end
$var wire 1 H! CLK~inputclkctrl_outclk $end
$var wire 1 I! IN~input_o $end
$var wire 1 J! IN~inputclkctrl_outclk $end
$var wire 1 K! Qin[2]~input_o $end
$var wire 1 L! Multiplier|Q[2]~feeder_combout $end
$var wire 1 M! CLEAR~input_o $end
$var wire 1 N! Min[2]~input_o $end
$var wire 1 O! Multiplicand|Q[2]~feeder_combout $end
$var wire 1 P! Mult|Ctrl|Selector1~0_combout $end
$var wire 1 Q! Mult|Add0~0_combout $end
$var wire 1 R! Mult|Add0~1_combout $end
$var wire 1 S! Mult|Add0~2_combout $end
$var wire 1 T! Mult|C0~0_combout $end
$var wire 1 U! Mult|Ctrl|state[4]~0_combout $end
$var wire 1 V! Mult|Ctrl|state[4]~1_combout $end
$var wire 1 W! Out~input_o $end
$var wire 1 X! Mult|Ctrl|Selector1~1_combout $end
$var wire 1 Y! Mult|Ctrl|state[1]~6_combout $end
$var wire 1 Z! Mult|Ctrl|state[1]~7_combout $end
$var wire 1 [! Mult|Ctrl|state[2]~4_combout $end
$var wire 1 \! Mult|Ctrl|state[2]~5_combout $end
$var wire 1 ]! Mult|Ctrl|state[0]~2_combout $end
$var wire 1 ^! Mult|Ctrl|state[0]~3_combout $end
$var wire 1 _! Qin[7]~input_o $end
$var wire 1 `! Mult|always3~0_combout $end
$var wire 1 a! Mult|Add1~10_combout $end
$var wire 1 b! Min[1]~input_o $end
$var wire 1 c! Multiplicand|Q[1]~feeder_combout $end
$var wire 1 d! Mult|Add1~6_combout $end
$var wire 1 e! Min[0]~input_o $end
$var wire 1 f! Multiplicand|Q[0]~feeder_combout $end
$var wire 1 g! Mult|Add1~0_combout $end
$var wire 1 h! Mult|Add1~2_cout $end
$var wire 1 i! Mult|Add1~4 $end
$var wire 1 j! Mult|Add1~8 $end
$var wire 1 k! Mult|Add1~11_combout $end
$var wire 1 l! Min[4]~input_o $end
$var wire 1 m! Multiplicand|Q[4]~feeder_combout $end
$var wire 1 n! Mult|Add1~18_combout $end
$var wire 1 o! Min[3]~input_o $end
$var wire 1 p! Mult|RegM[3]~feeder_combout $end
$var wire 1 q! Mult|Add1~14_combout $end
$var wire 1 r! Mult|Add1~12 $end
$var wire 1 s! Mult|Add1~16 $end
$var wire 1 t! Mult|Add1~19_combout $end
$var wire 1 u! Min[6]~input_o $end
$var wire 1 v! Multiplicand|Q[6]~feeder_combout $end
$var wire 1 w! Mult|Add1~26_combout $end
$var wire 1 x! Min[5]~input_o $end
$var wire 1 y! Mult|Add1~22_combout $end
$var wire 1 z! Mult|Add1~20 $end
$var wire 1 {! Mult|Add1~24 $end
$var wire 1 |! Mult|Add1~27_combout $end
$var wire 1 }! Min[7]~input_o $end
$var wire 1 ~! Mult|Add1~30_combout $end
$var wire 1 !" Mult|Add1~28 $end
$var wire 1 "" Mult|Add1~31_combout $end
$var wire 1 #" Mult|Add1~32 $end
$var wire 1 $" Mult|Add1~35 $end
$var wire 1 %" Mult|Add1~38 $end
$var wire 1 &" Mult|Add1~41 $end
$var wire 1 '" Mult|Add1~44 $end
$var wire 1 (" Mult|Add1~47 $end
$var wire 1 )" Mult|Add1~50 $end
$var wire 1 *" Mult|Add1~53 $end
$var wire 1 +" Mult|Add1~55_combout $end
$var wire 1 ," Mult|Add1~57_combout $end
$var wire 1 -" Mult|Add1~52_combout $end
$var wire 1 ." Mult|Add1~54_combout $end
$var wire 1 /" Mult|RegA[11]~0_combout $end
$var wire 1 0" Mult|Add1~49_combout $end
$var wire 1 1" Mult|Add1~51_combout $end
$var wire 1 2" Mult|Add1~46_combout $end
$var wire 1 3" Mult|Add1~48_combout $end
$var wire 1 4" Mult|Add1~43_combout $end
$var wire 1 5" Mult|Add1~45_combout $end
$var wire 1 6" Mult|Add1~40_combout $end
$var wire 1 7" Mult|Add1~42_combout $end
$var wire 1 8" Mult|Add1~37_combout $end
$var wire 1 9" Mult|Add1~39_combout $end
$var wire 1 :" Mult|Add1~34_combout $end
$var wire 1 ;" Mult|Add1~36_combout $end
$var wire 1 <" Mult|Add1~33_combout $end
$var wire 1 =" Mult|Add1~29_combout $end
$var wire 1 >" Mult|Add1~23_combout $end
$var wire 1 ?" Mult|Add1~25_combout $end
$var wire 1 @" Mult|Add1~21_combout $end
$var wire 1 A" Mult|Add1~15_combout $end
$var wire 1 B" Mult|Add1~17_combout $end
$var wire 1 C" Mult|Add1~13_combout $end
$var wire 1 D" Mult|Add1~7_combout $end
$var wire 1 E" Mult|Add1~9_combout $end
$var wire 1 F" Mult|Add1~3_combout $end
$var wire 1 G" Mult|Add1~5_combout $end
$var wire 1 H" Mult|RegQ~8_combout $end
$var wire 1 I" Mult|RegQ[0]~1_combout $end
$var wire 1 J" Qin[6]~input_o $end
$var wire 1 K" Mult|RegQ~7_combout $end
$var wire 1 L" Qin[5]~input_o $end
$var wire 1 M" Mult|RegQ~6_combout $end
$var wire 1 N" Qin[4]~input_o $end
$var wire 1 O" Mult|RegQ~5_combout $end
$var wire 1 P" Qin[3]~input_o $end
$var wire 1 Q" Mult|RegQ~4_combout $end
$var wire 1 R" Mult|RegQ~3_combout $end
$var wire 1 S" Qin[1]~input_o $end
$var wire 1 T" Multiplier|Q[1]~feeder_combout $end
$var wire 1 U" Mult|RegQ~2_combout $end
$var wire 1 V" Qin[0]~input_o $end
$var wire 1 W" Multiplier|Q[0]~feeder_combout $end
$var wire 1 X" Mult|RegQ~0_combout $end
$var wire 1 Y" hex4|WideOr6~0_combout $end
$var wire 1 Z" hex4|WideOr5~0_combout $end
$var wire 1 [" hex4|WideOr4~0_combout $end
$var wire 1 \" hex4|WideOr3~0_combout $end
$var wire 1 ]" hex4|WideOr2~0_combout $end
$var wire 1 ^" hex4|WideOr1~0_combout $end
$var wire 1 _" hex4|WideOr0~0_combout $end
$var wire 1 `" hex5|WideOr6~0_combout $end
$var wire 1 a" hex5|WideOr5~0_combout $end
$var wire 1 b" hex5|WideOr4~0_combout $end
$var wire 1 c" hex5|WideOr3~0_combout $end
$var wire 1 d" hex5|WideOr2~0_combout $end
$var wire 1 e" hex5|WideOr1~0_combout $end
$var wire 1 f" hex5|WideOr0~0_combout $end
$var wire 1 g" hex2|WideOr6~0_combout $end
$var wire 1 h" hex2|WideOr5~0_combout $end
$var wire 1 i" hex2|WideOr4~0_combout $end
$var wire 1 j" hex2|WideOr3~0_combout $end
$var wire 1 k" hex2|WideOr2~0_combout $end
$var wire 1 l" hex2|WideOr1~0_combout $end
$var wire 1 m" hex2|WideOr0~0_combout $end
$var wire 1 n" hex3|WideOr6~0_combout $end
$var wire 1 o" hex3|WideOr5~0_combout $end
$var wire 1 p" hex3|WideOr4~0_combout $end
$var wire 1 q" hex3|WideOr3~0_combout $end
$var wire 1 r" hex3|WideOr2~0_combout $end
$var wire 1 s" hex3|WideOr1~0_combout $end
$var wire 1 t" hex3|WideOr0~0_combout $end
$var wire 1 u" Mult|Ctrl|state [4] $end
$var wire 1 v" Mult|Ctrl|state [3] $end
$var wire 1 w" Mult|Ctrl|state [2] $end
$var wire 1 x" Mult|Ctrl|state [1] $end
$var wire 1 y" Mult|Ctrl|state [0] $end
$var wire 1 z" Multiplier|Q [7] $end
$var wire 1 {" Multiplier|Q [6] $end
$var wire 1 |" Multiplier|Q [5] $end
$var wire 1 }" Multiplier|Q [4] $end
$var wire 1 ~" Multiplier|Q [3] $end
$var wire 1 !# Multiplier|Q [2] $end
$var wire 1 "# Multiplier|Q [1] $end
$var wire 1 ## Multiplier|Q [0] $end
$var wire 1 $# Mult|RegA [15] $end
$var wire 1 %# Mult|RegA [14] $end
$var wire 1 &# Mult|RegA [13] $end
$var wire 1 '# Mult|RegA [12] $end
$var wire 1 (# Mult|RegA [11] $end
$var wire 1 )# Mult|RegA [10] $end
$var wire 1 *# Mult|RegA [9] $end
$var wire 1 +# Mult|RegA [8] $end
$var wire 1 ,# Mult|RegA [7] $end
$var wire 1 -# Mult|RegA [6] $end
$var wire 1 .# Mult|RegA [5] $end
$var wire 1 /# Mult|RegA [4] $end
$var wire 1 0# Mult|RegA [3] $end
$var wire 1 1# Mult|RegA [2] $end
$var wire 1 2# Mult|RegA [1] $end
$var wire 1 3# Mult|RegA [0] $end
$var wire 1 4# Mult|Count [2] $end
$var wire 1 5# Mult|Count [1] $end
$var wire 1 6# Mult|Count [0] $end
$var wire 1 7# Mult|RegQ [7] $end
$var wire 1 8# Mult|RegQ [6] $end
$var wire 1 9# Mult|RegQ [5] $end
$var wire 1 :# Mult|RegQ [4] $end
$var wire 1 ;# Mult|RegQ [3] $end
$var wire 1 <# Mult|RegQ [2] $end
$var wire 1 =# Mult|RegQ [1] $end
$var wire 1 ># Mult|RegQ [0] $end
$var wire 1 ?# Mult|RegM [15] $end
$var wire 1 @# Mult|RegM [14] $end
$var wire 1 A# Mult|RegM [13] $end
$var wire 1 B# Mult|RegM [12] $end
$var wire 1 C# Mult|RegM [11] $end
$var wire 1 D# Mult|RegM [10] $end
$var wire 1 E# Mult|RegM [9] $end
$var wire 1 F# Mult|RegM [8] $end
$var wire 1 G# Mult|RegM [7] $end
$var wire 1 H# Mult|RegM [6] $end
$var wire 1 I# Mult|RegM [5] $end
$var wire 1 J# Mult|RegM [4] $end
$var wire 1 K# Mult|RegM [3] $end
$var wire 1 L# Mult|RegM [2] $end
$var wire 1 M# Mult|RegM [1] $end
$var wire 1 N# Mult|RegM [0] $end
$var wire 1 O# Multiplicand|Q [7] $end
$var wire 1 P# Multiplicand|Q [6] $end
$var wire 1 Q# Multiplicand|Q [5] $end
$var wire 1 R# Multiplicand|Q [4] $end
$var wire 1 S# Multiplicand|Q [3] $end
$var wire 1 T# Multiplicand|Q [2] $end
$var wire 1 U# Multiplicand|Q [1] $end
$var wire 1 V# Multiplicand|Q [0] $end
$upscope $end
$upscope $end
$enddefinitions $end
#0
$dumpvars
1!
0"
1#
b1111111 $
1%
b1 &
x'
x(
0,
0+
0*
0)
0-
04
03
02
01
00
0/
0.
1B
0A
0@
0?
0>
0=
0<
1;
0:
09
08
07
06
05
0R
0Q
0P
0O
0N
0M
0L
0K
0J
0I
0H
0G
0F
0E
0D
0C
1`
0_
0^
0]
0\
0[
0Z
1Y
0X
0W
0V
0U
0T
0S
0a
1b
xc
1d
1e
1f
xg
xh
0i
zj
zk
zl
0m
0n
0o
0p
0q
0r
0s
0t
0u
0v
0w
0x
0y
0z
0{
0|
1}
0~
0!!
0"!
0#!
0$!
0%!
1&!
0'!
0(!
0)!
0*!
0+!
0,!
1-!
0.!
0/!
00!
01!
02!
03!
14!
05!
06!
07!
08!
09!
0:!
0;!
0<!
0=!
0>!
0?!
0@!
0A!
0B!
0C!
0D!
0E!
0F!
0G!
0H!
1I!
1J!
0K!
0L!
1M!
1N!
1O!
0P!
0Q!
0R!
0S!
0T!
0U!
0V!
1W!
0X!
0Y!
1Z!
0[!
0\!
0]!
1^!
0_!
0`!
0a!
1b!
1c!
0d!
1e!
1f!
0g!
0h!
1i!
0j!
0k!
1l!
1m!
0n!
1o!
0p!
0q!
1r!
0s!
0t!
1u!
1v!
0w!
1x!
0y!
1z!
0{!
0|!
0}!
0~!
1!"
0""
0#"
1$"
0%"
1&"
0'"
1("
0)"
1*"
0+"
0,"
0-"
0."
1/"
00"
01"
02"
03"
04"
05"
06"
07"
08"
09"
0:"
0;"
0<"
0="
0>"
0?"
0@"
0A"
0B"
0C"
0D"
0E"
0F"
0G"
0H"
1I"
0J"
0K"
0L"
0M"
0N"
0O"
0P"
0Q"
0R"
0S"
0T"
0U"
1V"
1W"
0X"
0Y"
0Z"
0["
0\"
0]"
0^"
0_"
0`"
0a"
0b"
0c"
0d"
0e"
0f"
0g"
0h"
0i"
0j"
0k"
0l"
0m"
0n"
0o"
0p"
0q"
0r"
0s"
0t"
0y"
0x"
0w"
0v"
0u"
0##
0"#
0!#
0~"
0}"
0|"
0{"
0z"
03#
02#
01#
00#
0/#
0.#
0-#
0,#
0+#
0*#
0)#
0(#
0'#
0&#
0%#
0$#
06#
05#
04#
0>#
0=#
0<#
0;#
0:#
09#
08#
07#
0N#
0M#
0L#
0K#
0J#
0I#
0H#
0G#
zF#
zE#
zD#
zC#
zB#
zA#
z@#
z?#
0V#
0U#
0T#
0S#
0R#
0Q#
0P#
0O#
$end
#1000
1"
1G!
1H!
#2000
0"
0G!
0H!
1x"
1y"
1]!
1P!
0I"
0/"
1[!
0Z!
1X!
#2500
0!
0M!
#3000
1"
1G!
1H!
#4000
0"
0G!
0H!
1v"
0x"
1I"
1/"
0[!
1U!
0P!
1Z!
1Q!
0X!
#5000
0#
1!
1"
1G!
1M!
0I!
0J!
1H!
1T#
1U#
1V#
1R#
1S#
1P#
1Q#
1##
1Y"
1^"
1]"
1\"
1c"
1b"
1a"
1p!
1m"
1j"
1i"
1h"
1.!
1/!
10!
13!
1'!
1(!
1)!
1"!
1#!
1$!
0}
0B
1=
1>
1?
18
19
1:
1Z
1]
1^
1_
#6000
0"
0G!
0H!
16#
0v"
1x"
0I"
0/"
1[!
0U!
1P!
0Z!
1X!
#7000
1"
1G!
1H!
#8000
0"
0G!
0H!
1v"
0x"
1I"
1/"
0[!
1U!
0P!
1Z!
1R!
0Q!
0X!
#9000
1"
1G!
1H!
#10000
0%
1#
0"
0G!
1I!
0W!
1J!
0H!
0v"
0y"
06#
15#
0]!
0U!
1X"
0^!
1^!
#11000
1"
1G!
1H!
#12000
0"
0G!
0H!
05#
1L#
1M#
1N#
1J#
1K#
1H#
1I#
1>#
1m
1a!
1d!
1g!
1n!
1q!
1w!
1y!
1R
0R!
1k!
1D"
1F"
1t!
1A"
1|!
1>"
#13000
1"
1G!
1H!
#14000
0"
0G!
0H!
#15000
1%
1"
1G!
1W!
1H!
#16000
0"
0G!
0H!
1x"
1y"
1]!
0I"
0/"
1[!
0Z!
0X"
1\!
#17000
1"
1G!
1H!
#18000
0"
0G!
0H!
0x"
1w"
1P!
1/"
1Y!
0\!
1G"
1E"
1C"
1B"
1@"
1?"
1="
1X!
#19000
1"
1G!
1H!
#20000
0"
0G!
0H!
1v"
0w"
1-#
1.#
1/#
10#
11#
12#
13#
1u
1v
1w
1x
1y
1z
1{
1I"
0[!
0Y!
1U!
0P!
0!"
0|!
1{!
0>"
0z!
0t!
1s!
0A"
0r!
0k!
1j!
0D"
0i!
0F"
1D
1E
1F
1G
1H
1I
1J
1Q!
0="
1H"
1""
1|!
1>"
1t!
1A"
1k!
1D"
1Z!
0X!
#21000
1"
1G!
1H!
#22000
0"
0G!
0H!
16#
0v"
1x"
0-#
17#
0>#
0m
1t
0{
0I"
0/"
1[!
0U!
1P!
0|!
0D
1K
0R
0Z!
0?"
1K"
1X!
#23000
1"
1G!
1H!
#24000
0"
0G!
0H!
1v"
0x"
1I"
1/"
0[!
1U!
0P!
1Z!
1R!
0Q!
0X!
#25000
1"
1G!
1H!
#26000
0"
0G!
0H!
06#
15#
0v"
1x"
0.#
18#
1s
0z
0I"
0/"
1[!
0U!
1P!
0>"
0E
1L
0Z!
0@"
1M"
1X!
#27000
1"
1G!
1H!
#28000
0"
0G!
0H!
1v"
0x"
1I"
1/"
0[!
1U!
0P!
1Z!
1Q!
0X!
#29000
1"
1G!
1H!
#30000
0"
0G!
0H!
16#
0v"
1x"
0/#
19#
1r
0y
0I"
0/"
1[!
0U!
1P!
0t!
0F
1M
0Z!
0B"
1O"
1X!
#31000
1"
1G!
1H!
#32000
0"
0G!
0H!
1v"
0x"
1I"
1/"
0[!
1U!
0P!
1Z!
1S!
0R!
0Q!
0X!
#33000
1"
1G!
1H!
#34000
0"
0G!
0H!
06#
05#
14#
0v"
1x"
00#
1:#
1q
0x
0I"
0/"
1[!
0U!
1P!
0A"
0G
1N
0Z!
0C"
1Q"
1X!
#35000
1"
1G!
1H!
#36000
0"
0G!
0H!
1v"
0x"
1I"
1/"
0[!
1U!
0P!
1Z!
1Q!
0X!
#37000
1"
1G!
1H!
#38000
0"
0G!
0H!
16#
0v"
1x"
01#
1;#
1p
0w
0I"
0/"
1[!
0U!
1P!
0k!
0H
1O
0Z!
0E"
1R"
1X!
#39000
1"
1G!
1H!
#40000
0"
0G!
0H!
1v"
0x"
1I"
1/"
0[!
1U!
0P!
1Z!
1R!
0Q!
0X!
#41000
1"
1G!
1H!
#42000
0"
0G!
0H!
06#
15#
0v"
1x"
02#
1<#
1o
0v
0I"
0/"
1[!
0U!
1P!
0D"
0I
1P
0Z!
0G"
1U"
1X!
#43000
1"
1G!
1H!
#44000
0"
0G!
0H!
1v"
0x"
1I"
1/"
0[!
1U!
0P!
1Z!
1Q!
0X!
#45000
1"
1G!
1H!
#46000
0"
0G!
0H!
16#
0v"
1x"
03#
1=#
1n
0u
1T!
0I"
0/"
1[!
0U!
1P!
1i!
1F"
0J
1Q
0Z!
0H"
1X"
0j!
1D"
1X!
1r!
1k!
0s!
1A"
1z!
1t!
0{!
1>"
1!"
1|!
0""
#47000
1"
1G!
1H!
#48000
0"
0G!
0H!
1v"
0x"
1I"
1/"
0[!
1Y!
1U!
0P!
1Z!
0S!
0R!
0Q!
0Z!
1V!
0X!
#49000
1"
1G!
1H!
#50000
0"
0G!
0H!
06#
05#
04#
0v"
1u"
07#
1>#
1m
0t
1F!
0T!
0I"
0/"
0U!
1-
0K
1R
0K"
#51000
1"
1G!
1H!
#52000
0"
0G!
0H!
#53000
1"
1G!
1H!
#54000
0"
0G!
0H!
#55000
1"
1G!
1H!
#56000
0"
0G!
0H!
#57000
1"
1G!
1H!
#58000
0"
0G!
0H!
#59000
1"
1G!
1H!
#60000
0"
0G!
0H!
#61000
1"
1G!
1H!
#62000
0"
0G!
0H!
#63000
1"
1G!
1H!
#64000
0"
0G!
0H!
#65000
1"
1G!
1H!
#66000
0"
0G!
0H!
#67000
1"
1G!
1H!
#68000
0"
0G!
0H!
#69000
1"
1G!
1H!
#70000
0"
0G!
0H!
#71000
1"
1G!
1H!
#72000
0"
0G!
0H!
#73000
1"
1G!
1H!
#74000
0"
0G!
0H!
#75000
1"
1G!
1H!
#76000
0"
0G!
0H!
#77000
1"
1G!
1H!
#78000
0"
0G!
0H!
#79000
1"
1G!
1H!
#80000
b111111 $
b11111 $
b10111 $
b10101 $
b100001 &
b101001 &
b101011 &
b101010 &
0"
0G!
0u!
0x!
0o!
0b!
1L"
1P"
1S"
0V"
0H!
0v!
0c!
1T"
0W"
#81000
1"
1G!
1H!
#82000
0"
0G!
0H!
#82500
0!
0M!
0T#
0U#
0V#
0R#
0S#
0P#
0Q#
0##
0Y"
0^"
0]"
0\"
0c"
0b"
0a"
0p!
0m"
0j"
0i"
0h"
0.!
0/!
00!
03!
0'!
0(!
0)!
0"!
0#!
0$!
1}
1B
0=
0>
0?
08
09
0:
0Z
0]
0^
0_
#83000
1"
1G!
1H!
#84000
0"
0G!
0H!
#85000
0#
1!
1"
1G!
1M!
0I!
0J!
1H!
1T#
1V#
1R#
1|"
1~"
1"#
1Y"
1n"
1g"
1^"
1["
1f"
1c"
1b"
1a"
1r"
1o"
1j"
10!
15!
18!
1'!
1(!
1)!
1,!
1!!
1$!
0-!
04!
0}
0B
0Y
0`
1=
1@
15
18
19
1:
1U
1X
1]
#86000
0"
0G!
0H!
#87000
1"
1G!
1H!
#88000
0"
0G!
0H!
#89000
1"
1G!
1H!
#90000
0%
1#
0"
0G!
1I!
0W!
1J!
0H!
0y"
0u"
0F!
1I"
1/"
0]!
0Y!
0-
0X"
0R"
0O"
0^!
0V!
1^!
1Z!
#91000
1"
1G!
1H!
#92000
0"
0G!
0H!
0M#
0K#
0H#
0I#
08#
0:#
0<#
0>#
0m
0o
0q
0s
0d!
0q!
0w!
0y!
0L
0N
0P
0R
0D"
0A"
0|!
0>"
#93000
1"
1G!
1H!
#94000
0"
0G!
0H!
#95000
1%
1"
1G!
1W!
1H!
#96000
0"
0G!
0H!
1x"
1y"
1]!
1P!
0I"
0/"
1[!
0Z!
1X"
0U"
1R"
0Q"
1O"
0M"
1X!
#97000
1"
1G!
1H!
#98000
0"
0G!
0H!
1v"
0x"
1I"
1/"
0[!
1U!
0P!
1Z!
1Q!
0X!
#99000
1"
1G!
1H!
#100000
0"
0G!
0H!
16#
0v"
1x"
09#
1:#
0;#
1<#
0=#
1>#
1m
0n
1o
0p
1q
0r
0I"
0/"
1[!
0U!
0M
1N
0O
1P
0Q
1R
0Z!
0O"
1Q"
0R"
1U"
0X"
1\!
#101000
1"
1G!
1H!
#102000
0"
0G!
0H!
0x"
1w"
1P!
1/"
1Y!
0\!
1G"
1C"
1@"
1X!
#103000
1"
1G!
1H!
#104000
0"
0G!
0H!
1v"
0w"
1/#
11#
13#
1u
1w
1y
1I"
0[!
0Y!
1U!
0P!
0z!
0t!
0r!
0k!
0i!
0F"
1F
1H
1J
1R!
0Q!
0G"
1E"
0C"
1B"
0@"
1H"
1>"
1A"
1D"
1Z!
0X!
#105000
1"
1G!
1H!
#106000
0"
0G!
0H!
06#
15#
0v"
1x"
0/#
10#
01#
12#
03#
17#
0:#
1;#
0<#
1=#
0>#
0m
1n
0o
1p
0q
1t
0u
1v
0w
1x
0y
0I"
0/"
1[!
0U!
1P!
1z!
1t!
1s!
0A"
1r!
1k!
1j!
0D"
1i!
1F"
0F
1G
0H
1I
0J
1K
0N
1O
0P
1Q
0R
0Z!
0B"
1C"
0E"
1G"
0H"
1K"
0Q"
1R"
0U"
1X"
0>"
0z!
0t!
0s!
1A"
0r!
0k!
0j!
1D"
1X!
1>"
1z!
1t!
1s!
0A"
1r!
1k!
0>"
0z!
0t!
0s!
1A"
1>"
1z!
1t!
0>"
#107000
1"
1G!
1H!
#108000
0"
0G!
0H!
1v"
0x"
1I"
1/"
0[!
1U!
0P!
1Z!
1Q!
0X!
#109000
1"
1G!
1H!
#110000
0"
0G!
0H!
16#
0v"
1x"
00#
11#
02#
13#
07#
18#
0;#
1<#
0=#
1>#
1m
0n
1o
0p
1s
0t
1u
0v
1w
0x
0I"
0/"
1[!
0U!
0A"
0r!
0k!
0D"
0i!
0F"
0G
1H
0I
1J
0K
1L
0O
1P
0Q
1R
0Z!
0C"
1E"
0G"
1H"
0K"
1M"
0R"
1U"
0X"
1A"
1D"
1\!
#111000
1"
1G!
1H!
#112000
0"
0G!
0H!
0x"
1w"
1P!
1/"
1Y!
0\!
1B"
1@"
1X!
#113000
1"
1G!
1H!
#114000
0"
0G!
0H!
1v"
0w"
1/#
10#
01#
12#
03#
0u
1v
0w
1x
1y
1I"
0[!
0Y!
1U!
0P!
0z!
0t!
1s!
0A"
1r!
1k!
1j!
0D"
1i!
1F"
1F
1G
0H
1I
0J
1S!
0R!
0Q!
1G"
0E"
1C"
0@"
0H"
1>"
1t!
0s!
1A"
0r!
0k!
0j!
1D"
1Z!
0X!
0t!
1s!
0A"
1r!
1k!
1t!
0s!
1A"
0t!
#115000
1"
1G!
1H!
#116000
0"
0G!
0H!
06#
05#
14#
0v"
1x"
0/#
11#
02#
13#
08#
19#
0<#
1=#
0>#
0m
1n
0o
1r
0s
1u
0v
1w
0y
0I"
0/"
1[!
0U!
1P!
1z!
1t!
0r!
0k!
0D"
0i!
0F"
0F
1H
0I
1J
0L
1M
0P
1Q
0R
0Z!
0B"
1E"
0G"
1H"
0M"
1O"
0U"
1X"
0>"
1s!
0A"
1D"
1X!
0z!
0t!
1>"
#117000
1"
1G!
1H!
#118000
0"
0G!
0H!
1v"
0x"
1I"
1/"
0[!
1U!
0P!
1Z!
1Q!
0X!
#119000
1"
1G!
1H!
#120000
0"
0G!
0H!
16#
0v"
1x"
00#
12#
03#
17#
09#
1:#
0=#
1>#
1m
0n
1q
0r
1t
0u
1v
0x
0I"
0/"
1[!
0U!
0s!
1A"
1j!
0D"
1i!
1F"
0G
1I
0J
1K
0M
1N
0Q
1R
0Z!
0C"
1G"
0H"
1K"
0O"
1Q"
0X"
1z!
1t!
1k!
0j!
1D"
1\!
0>"
0k!
#121000
1"
1G!
1H!
#122000
0"
0G!
0H!
0x"
1w"
1P!
1/"
1Y!
0\!
1B"
1@"
1X!
#123000
1"
1G!
1H!
