Lab5/Lab5_EX/simulation/qsim/Lab5_Signed.msim.vcd
$comment
	File created using the following command:
		vcd file Lab5_Signed.msim.vcd -direction
$end
$date
	Thu Apr 04 20:40:53 2024
$end
$version
	ModelSim Version 2020.1
$end
$timescale
	1ps
$end

$scope module Divider_vlg_vec_tst $end
$var reg 1 ! CLOCK $end
$var reg 16 " Dividend [15:0] $end
$var reg 8 # Divisor [7:0] $end
$var reg 1 $ START $end
$var wire 1 % DONE $end
$var wire 1 & Quotient [7] $end
$var wire 1 ' Quotient [6] $end
$var wire 1 ( Quotient [5] $end
$var wire 1 ) Quotient [4] $end
$var wire 1 * Quotient [3] $end
$var wire 1 + Quotient [2] $end
$var wire 1 , Quotient [1] $end
$var wire 1 - Quotient [0] $end
$var wire 1 . Remainder [7] $end
$var wire 1 / Remainder [6] $end
$var wire 1 0 Remainder [5] $end
$var wire 1 1 Remainder [4] $end
$var wire 1 2 Remainder [3] $end
$var wire 1 3 Remainder [2] $end
$var wire 1 4 Remainder [1] $end
$var wire 1 5 Remainder [0] $end

$scope module i1 $end
$var wire 1 6 gnd $end
$var wire 1 7 vcc $end
$var wire 1 8 unknown $end
$var tri1 1 9 devclrn $end
$var tri1 1 : devpor $end
$var tri1 1 ; devoe $end
$var wire 1 < ~QUARTUS_CREATED_UNVM~~busy $end
$var wire 1 = ~QUARTUS_CREATED_ADC1~~eoc $end
$var wire 1 > ~QUARTUS_CREATED_ADC2~~eoc $end
$var wire 1 ? Quotient[0]~output_o $end
$var wire 1 @ Quotient[1]~output_o $end
$var wire 1 A Quotient[2]~output_o $end
$var wire 1 B Quotient[3]~output_o $end
$var wire 1 C Quotient[4]~output_o $end
$var wire 1 D Quotient[5]~output_o $end
$var wire 1 E Quotient[6]~output_o $end
$var wire 1 F Quotient[7]~output_o $end
$var wire 1 G Remainder[0]~output_o $end
$var wire 1 H Remainder[1]~output_o $end
$var wire 1 I Remainder[2]~output_o $end
$var wire 1 J Remainder[3]~output_o $end
$var wire 1 K Remainder[4]~output_o $end
$var wire 1 L Remainder[5]~output_o $end
$var wire 1 M Remainder[6]~output_o $end
$var wire 1 N Remainder[7]~output_o $end
$var wire 1 O DONE~output_o $end
$var wire 1 P Divisor[7]~input_o $end
$var wire 1 Q Dividend[15]~input_o $end
$var wire 1 R always0~0_combout $end
$var wire 1 S CLOCK~input_o $end
$var wire 1 T CLOCK~inputclkctrl_outclk $end
$var wire 1 U DivCtrl|State.Adds~q $end
$var wire 1 V DivCtrl|State.Subs1~0_combout $end
$var wire 1 W DivCtrl|State.Subs1~q $end
$var wire 1 X DivCtrl|Rload~combout $end
$var wire 1 Y Dividend[14]~input_o $end
$var wire 1 Z Dividend[13]~input_o $end
$var wire 1 [ Dividend[12]~input_o $end
$var wire 1 \ Dividend[11]~input_o $end
$var wire 1 ] Dividend[10]~input_o $end
$var wire 1 ^ Dividend[9]~input_o $end
$var wire 1 _ Dividend[8]~input_o $end
$var wire 1 ` Dividend[7]~input_o $end
$var wire 1 a Dividend[6]~input_o $end
$var wire 1 b Dividend[5]~input_o $end
$var wire 1 c Dividend[4]~input_o $end
$var wire 1 d Dividend[3]~input_o $end
$var wire 1 e Dividend[2]~input_o $end
$var wire 1 f Dividend[1]~input_o $end
$var wire 1 g Dividend[0]~input_o $end
$var wire 1 h Add0~1_cout $end
$var wire 1 i Add0~3 $end
$var wire 1 j Add0~5 $end
$var wire 1 k Add0~7 $end
$var wire 1 l Add0~9 $end
$var wire 1 m Add0~11 $end
$var wire 1 n Add0~13 $end
$var wire 1 o Add0~15 $end
$var wire 1 p Add0~17 $end
$var wire 1 q Add0~19 $end
$var wire 1 r Add0~21 $end
$var wire 1 s Add0~23 $end
$var wire 1 t Add0~25 $end
$var wire 1 u Add0~27 $end
$var wire 1 v Add0~29 $end
$var wire 1 w Add0~30_combout $end
$var wire 1 x Add0~14_combout $end
$var wire 1 y Qreg|Q~9_combout $end
$var wire 1 z Add0~12_combout $end
$var wire 1 { Qreg|Q~8_combout $end
$var wire 1 | Add0~10_combout $end
$var wire 1 } Qreg|Q~7_combout $end
$var wire 1 ~ Add0~8_combout $end
$var wire 1 !! Qreg|Q~6_combout $end
$var wire 1 "! Add0~6_combout $end
$var wire 1 #! Qreg|Q~5_combout $end
$var wire 1 $! Add0~4_combout $end
$var wire 1 %! Qreg|Q~4_combout $end
$var wire 1 &! Add0~2_combout $end
$var wire 1 '! Qreg|Q~2_combout $end
$var wire 1 (! DivCtrl|Selector2~0_combout $end
$var wire 1 )! DivCtrl|State.Shifts4~q $end
$var wire 1 *! DivCtrl|Qshift~combout $end
$var wire 1 +! Qreg|Q[0]~3_combout $end
$var wire 1 ,! Add0~16_combout $end
$var wire 1 -! Rreg|Q[0]~0_combout $end
$var wire 1 .! Divisor[0]~input_o $end
$var wire 1 /! Dreg|Q[0]~8_combout $end
$var wire 1 0! Dreg|Q[0]~feeder_combout $end
$var wire 1 1! AdSb|Add1~0_combout $end
$var wire 1 2! Rreg|Q~1_combout $end
$var wire 1 3! AdSb|Add0~0_combout $end
$var wire 1 4! Rreg|Q~2_combout $end
$var wire 1 5! Rreg|Q~3_combout $end
$var wire 1 6! Rreg|Q[0]~4_combout $end
$var wire 1 7! Add0~18_combout $end
$var wire 1 8! Divisor[1]~input_o $end
$var wire 1 9! Dreg|Q[0]~9 $end
$var wire 1 :! Dreg|Q[1]~10_combout $end
$var wire 1 ;! Dreg|Q[1]~feeder_combout $end
$var wire 1 <! AdSb|Add0~1 $end
$var wire 1 =! AdSb|Add0~2_combout $end
$var wire 1 >! AdSb|Add1~1 $end
$var wire 1 ?! AdSb|Add1~2_combout $end
$var wire 1 @! Rreg|Q~5_combout $end
$var wire 1 A! Rreg|Q~6_combout $end
$var wire 1 B! Rreg|Q~7_combout $end
$var wire 1 C! Divisor[2]~input_o $end
$var wire 1 D! Dreg|Q[1]~11 $end
$var wire 1 E! Dreg|Q[2]~12_combout $end
$var wire 1 F! Dreg|Q[2]~feeder_combout $end
$var wire 1 G! AdSb|Add0~3 $end
$var wire 1 H! AdSb|Add0~4_combout $end
$var wire 1 I! Add0~20_combout $end
$var wire 1 J! AdSb|Add1~3 $end
$var wire 1 K! AdSb|Add1~4_combout $end
$var wire 1 L! Rreg|Q~8_combout $end
$var wire 1 M! Rreg|Q~9_combout $end
$var wire 1 N! Rreg|Q~10_combout $end
$var wire 1 O! Add0~22_combout $end
$var wire 1 P! Divisor[3]~input_o $end
$var wire 1 Q! Dreg|Q[2]~13 $end
$var wire 1 R! Dreg|Q[3]~14_combout $end
$var wire 1 S! Dreg|Q[3]~feeder_combout $end
$var wire 1 T! AdSb|Add0~5 $end
$var wire 1 U! AdSb|Add0~6_combout $end
$var wire 1 V! AdSb|Add1~5 $end
$var wire 1 W! AdSb|Add1~6_combout $end
$var wire 1 X! Rreg|Q~11_combout $end
$var wire 1 Y! Rreg|Q~12_combout $end
$var wire 1 Z! Rreg|Q~13_combout $end
$var wire 1 [! Divisor[4]~input_o $end
$var wire 1 \! Dreg|Q[3]~15 $end
$var wire 1 ]! Dreg|Q[4]~16_combout $end
$var wire 1 ^! Dreg|Q[4]~feeder_combout $end
$var wire 1 _! AdSb|Add0~7 $end
$var wire 1 `! AdSb|Add0~8_combout $end
$var wire 1 a! Add0~24_combout $end
$var wire 1 b! AdSb|Add1~7 $end
$var wire 1 c! AdSb|Add1~8_combout $end
$var wire 1 d! Rreg|Q~14_combout $end
$var wire 1 e! Rreg|Q~15_combout $end
$var wire 1 f! Rreg|Q~16_combout $end
$var wire 1 g! Add0~26_combout $end
$var wire 1 h! Divisor[5]~input_o $end
$var wire 1 i! Dreg|Q[4]~17 $end
$var wire 1 j! Dreg|Q[5]~18_combout $end
$var wire 1 k! Dreg|Q[5]~feeder_combout $end
$var wire 1 l! AdSb|Add1~9 $end
$var wire 1 m! AdSb|Add1~10_combout $end
$var wire 1 n! Rreg|Q~17_combout $end
$var wire 1 o! AdSb|Add0~9 $end
$var wire 1 p! AdSb|Add0~10_combout $end
$var wire 1 q! Rreg|Q~18_combout $end
$var wire 1 r! Rreg|Q~19_combout $end
$var wire 1 s! Divisor[6]~input_o $end
$var wire 1 t! Dreg|Q[5]~19 $end
$var wire 1 u! Dreg|Q[6]~20_combout $end
$var wire 1 v! AdSb|Add0~11 $end
$var wire 1 w! AdSb|Add0~12_combout $end
$var wire 1 x! Add0~28_combout $end
$var wire 1 y! AdSb|Add1~11 $end
$var wire 1 z! AdSb|Add1~12_combout $end
$var wire 1 {! Rreg|Q~20_combout $end
$var wire 1 |! Rreg|Q~21_combout $end
$var wire 1 }! Rreg|Q~22_combout $end
$var wire 1 ~! Dreg|Q[6]~21 $end
$var wire 1 !" Dreg|Q[7]~22_combout $end
$var wire 1 "" ~GND~combout $end
$var wire 1 #" AdSb|Add1~13 $end
$var wire 1 $" AdSb|Add1~14_combout $end
$var wire 1 %" AdSb|Add0~13 $end
$var wire 1 &" AdSb|Add0~14_combout $end
$var wire 1 '" Rreg|Q~23_combout $end
$var wire 1 (" Rreg|Q~24_combout $end
$var wire 1 )" Rreg|Q~25_combout $end
$var wire 1 *" Rreg|Q~26_combout $end
$var wire 1 +" AdSb|Add1~15 $end
$var wire 1 ," AdSb|Add1~16_combout $end
$var wire 1 -" AdSb|Add0~15 $end
$var wire 1 ." AdSb|Add0~16_combout $end
$var wire 1 /" AdSb|Result[8]~0_combout $end
$var wire 1 0" DivCtrl|Selector3~0_combout $end
$var wire 1 1" DivCtrl|State.Restore~q $end
$var wire 1 2" DivCtrl|State.Shifts3~q $end
$var wire 1 3" START~input_o $end
$var wire 1 4" DivCtrl|Selector4~0_combout $end
$var wire 1 5" DivCtrl|State.Ends~q $end
$var wire 1 6" DivCtrl|State~16_combout $end
$var wire 1 7" DivCtrl|State.Inits~q $end
$var wire 1 8" DivCtrl|Count~2_combout $end
$var wire 1 9" DivCtrl|Count[2]~1_combout $end
$var wire 1 :" DivCtrl|Count~0_combout $end
$var wire 1 ;" DivCtrl|Count~3_combout $end
$var wire 1 <" DivCtrl|Selector1~1_combout $end
$var wire 1 =" DivCtrl|Selector0~0_combout $end
$var wire 1 >" DivCtrl|Selector1~2_combout $end
$var wire 1 ?" DivCtrl|State.Shifts2~q $end
$var wire 1 @" DivCtrl|State.Subs~q $end
$var wire 1 A" DivCtrl|Selector1~0_combout $end
$var wire 1 B" DivCtrl|Selector0~1_combout $end
$var wire 1 C" DivCtrl|State.Shifts1~q $end
$var wire 1 D" Qreg|Q[0]~0_combout $end
$var wire 1 E" Qreg|Q[0]~1_combout $end
$var wire 1 F" Add2~0_combout $end
$var wire 1 G" Add2~1_combout $end
$var wire 1 H" Add2~2 $end
$var wire 1 I" Add2~3_combout $end
$var wire 1 J" Add2~4 $end
$var wire 1 K" Add2~5_combout $end
$var wire 1 L" Add2~6 $end
$var wire 1 M" Add2~7_combout $end
$var wire 1 N" Add2~8 $end
$var wire 1 O" Add2~9_combout $end
$var wire 1 P" Add2~10 $end
$var wire 1 Q" Add2~11_combout $end
$var wire 1 R" Add2~12 $end
$var wire 1 S" Add2~13_combout $end
$var wire 1 T" Add2~14 $end
$var wire 1 U" Add2~15_combout $end
$var wire 1 V" Qreg|Q [7] $end
$var wire 1 W" Qreg|Q [6] $end
$var wire 1 X" Qreg|Q [5] $end
$var wire 1 Y" Qreg|Q [4] $end
$var wire 1 Z" Qreg|Q [3] $end
$var wire 1 [" Qreg|Q [2] $end
$var wire 1 \" Qreg|Q [1] $end
$var wire 1 ]" Qreg|Q [0] $end
$var wire 1 ^" DivCtrl|Count [2] $end
$var wire 1 _" DivCtrl|Count [1] $end
$var wire 1 `" DivCtrl|Count [0] $end
$var wire 1 a" Dreg|Q [7] $end
$var wire 1 b" Dreg|Q [6] $end
$var wire 1 c" Dreg|Q [5] $end
$var wire 1 d" Dreg|Q [4] $end
$var wire 1 e" Dreg|Q [3] $end
$var wire 1 f" Dreg|Q [2] $end
$var wire 1 g" Dreg|Q [1] $end
$var wire 1 h" Dreg|Q [0] $end
$var wire 1 i" Rreg|Q [8] $end
$var wire 1 j" Rreg|Q [7] $end
$var wire 1 k" Rreg|Q [6] $end
$var wire 1 l" Rreg|Q [5] $end
$var wire 1 m" Rreg|Q [4] $end
$var wire 1 n" Rreg|Q [3] $end
$var wire 1 o" Rreg|Q [2] $end
$var wire 1 p" Rreg|Q [1] $end
$var wire 1 q" Rreg|Q [0] $end
$upscope $end
$upscope $end
$enddefinitions $end
#0
$dumpvars
0!
b111111111111 "
b11111111 #
0$
0%
0-
0,
0+
0*
0)
0(
0'
0&
05
04
03
02
01
00
0/
0.
06
17
x8
19
1:
1;
z<
z=
z>
0?
0@
0A
0B
0C
0D
0E
0F
0G
0H
0I
0J
0K
0L
0M
0N
0O
1P
0Q
1R
0S
0T
0U
1V
0W
1X
0Y
0Z
0[
1\
1]
1^
1_
1`
1a
1b
1c
1d
1e
1f
1g
0h
1i
0j
1k
0l
1m
0n
1o
0p
1q
0r
1s
0t
1u
0v
1w
0x
1y
0z
1{
0|
1}
0~
1!!
0"!
1#!
0$!
1%!
0&!
1'!
0(!
0)!
0*!
1+!
0,!
0-!
1.!
1/!
10!
01!
12!
03!
14!
15!
16!
07!
18!
09!
0:!
0;!
0<!
0=!
1>!
0?!
1@!
1A!
1B!
1C!
1D!
0E!
0F!
1G!
0H!
0I!
0J!
0K!
1L!
1M!
1N!
0O!
1P!
0Q!
0R!
0S!
0T!
0U!
1V!
0W!
1X!
1Y!
1Z!
1[!
1\!
0]!
0^!
1_!
0`!
1a!
0b!
0c!
0d!
0e!
0f!
1g!
1h!
0i!
0j!
0k!
1l!
0m!
0n!
0o!
0p!
0q!
0r!
1s!
1t!
0u!
1v!
0w!
1x!
0y!
0z!
0{!
0|!
0}!
0~!
0!"
0""
1#"
0$"
0%"
0&"
0'"
0("
0)"
0*"
0+"
0,"
1-"
0."
0/"
00"
01"
02"
03"
04"
05"
16"
07"
08"
19"
0:"
0;"
0<"
0="
0>"
0?"
0@"
1A"
0B"
0C"
1D"
1E"
1F"
0G"
1H"
0I"
0J"
0K"
1L"
0M"
0N"
0O"
1P"
0Q"
0R"
0S"
1T"
0U"
0]"
0\"
0["
0Z"
0Y"
0X"
0W"
0V"
0`"
0_"
0^"
0h"
0g"
0f"
0e"
0d"
0c"
0b"
0a"
0q"
0p"
0o"
0n"
0m"
0l"
0k"
0j"
0i"
$end
#1000
1!
1S
1T
1]"
17"
1h"
1V"
1W"
1X"
1Y"
1Z"
1["
1\"
1W
1n"
1o"
1p"
1q"
1G
1H
1I
1J
0F"
09"
0X!
0L!
0@!
02!
0+!
1<!
0T"
1R"
0P"
1N"
0L"
1J"
1W!
1U!
1K!
1H!
1?!
1=!
12
13
14
15
18"
0V
1U"
1S"
1Q"
1O"
1M"
1K"
1I"
1>"
1@
1A
1B
1C
1D
1E
1F
0H"
0Y!
0M!
0A!
04!
0G!
0=!
1X!
1L!
1@!
1&
1'
1(
1)
1*
1+
1,
1G"
0U"
0S"
0Q"
0O"
0M"
0K"
0A
0B
0C
0D
0E
0F
1?
1T!
0H!
1A!
1Y!
1M!
1-
0&
0'
0(
0)
0*
0+
0I"
0Z!
0N!
0B!
05!
0@
0_!
0U!
0,
1B!
1Z!
1N!
1`!
#2000
0!
0S
0T
#3000
1!
1S
1T
1?"
0W
0q"
0G
19"
1*!
0X
0<!
13!
0>!
11!
05
0>"
1+!
1G!
1=!
0?!
12!
1f!
0B!
15!
0T!
1H!
0@!
14!
1_!
1U!
0A!
0`!
#4000
0!
0S
0T
#5000
1$
1!
1S
13"
1T
1@"
0?"
1`"
1m"
0p"
1q"
1G
0H
1K
0A"
09"
06!
0*!
1c!
1`!
1J!
1?!
0=!
1<!
03!
1>!
01!
11
04
15
1:"
08"
1r!
0N!
1B!
1X
0+!
1d!
0K!
1@!
1=!
0J!
0?!
02!
1>"
16!
1e!
0L!
1A!
1K!
0@!
04!
0r!
0f!
1N!
0B!
0M!
1L!
0A!
1f!
1B!
05!
1M!
0N!
0B!
1N!
#6000
0!
0S
0T
#7000
1!
1S
1T
0@"
1?"
0q"
0G
1A"
19"
1*!
0<!
13!
0>!
11!
05
0X
1+!
0=!
1J!
1?!
12!
0>"
0K!
1@!
14!
1r!
0N!
15!
0L!
1A!
0M!
#8000
0!
0S
0T
#9000
1!
1S
1T
1@"
0?"
1_"
0`"
1l"
0o"
1q"
1G
0I
1L
0A"
09"
06!
0*!
1p!
1m!
0V!
1K!
0H!
1<!
03!
1>!
01!
10
03
15
18"
1}!
0Z!
1B!
1X
0+!
1n!
0W!
1L!
1=!
0J!
0?!
02!
1>"
16!
1q!
0X!
1M!
1V!
0K!
0@!
04!
0}!
0r!
1Z!
0Y!
1W!
0L!
0A!
1r!
1N!
05!
1X!
0M!
0Z!
0B!
1Y!
0N!
1Z!
#10000
0$
0!
0S
03"
0T
#11000
1!
1S
1T
0@"
1?"
0q"
0G
1A"
19"
1*!
0<!
13!
0>!
11!
05
0X
1+!
0=!
1J!
1?!
12!
0>"
0V!
1K!
1@!
14!
1}!
0Z!
15!
0W!
1L!
1A!
0X!
1M!
0Y!
#12000
0!
0S
0T
#13000
1!
1S
1T
1@"
0?"
1`"
1k"
0n"
1q"
1G
0J
1M
0A"
09"
06!
0*!
1("
1z!
1w!
1b!
1W!
0U!
1<!
03!
1>!
01!
1/
02
15
1;"
0:"
08"
0f!
1B!
1X
0+!
1{!
0c!
1X!
1=!
0J!
0?!
02!
1>"
1)"
0("
16!
1|!
0d!
1Y!
1V!
0K!
0@!
04!
0}!
1f!
1N!
0e!
0b!
0W!
0L!
0A!
0)"
1}!
1Z!
05!
1c!
0X!
0M!
0f!
0B!
1d!
0Y!
0N!
1e!
0Z!
1f!
#14000
0!
0S
0T
#15000
1!
1S
1T
0@"
1?"
0q"
0G
1A"
19"
1*!
0<!
13!
0>!
11!
05
0X
1+!
0=!
1J!
1?!
12!
0>"
1("
0V!
1K!
1@!
14!
0f!
15!
1b!
1W!
1L!
1A!
1)"
0c!
1X!
1M!
0d!
1Y!
0e!
#16000
0!
0S
0T
#17000
1!
1S
1T
1@"
0?"
1^"
0_"
0`"
1j"
0m"
1q"
1G
0K
1N
0A"
09"
06!
0*!
1&"
1$"
0l!
1c!
0`!
1<!
03!
1>!
01!
1.
01
15
18"
1*"
0r!
1B!
1X
0+!
1'"
0m!
1d!
1=!
0J!
0?!
02!
1>"
16!
0n!
1e!
1V!
0K!
0@!
04!
0*"
1r!
1Z!
1N!
0q!
0b!
0W!
0L!
0A!
1f!
05!
1l!
0c!
0X!
0M!
0r!
0B!
1m!
0d!
0Y!
0N!
1n!
0e!
0Z!
1q!
0f!
1r!
#18000
0!
0S
0T
#19000
1!
1S
1T
0@"
1?"
0q"
0G
1A"
19"
1*!
0<!
13!
0>!
11!
05
0X
1+!
0=!
1J!
1?!
12!
0>"
0V!
1K!
1@!
14!
1*"
0r!
15!
1b!
1W!
1L!
1A!
0l!
1c!
1X!
1M!
0m!
1d!
1Y!
0n!
1e!
0q!
#20000
0!
0S
0T
#21000
1!
1S
1T
1@"
0?"
1`"
1i"
0l"
1q"
1G
0L
0A"
09"
06!
0*!
1."
1,"
0p!
1y!
1m!
1<!
03!
1>!
01!
00
15
1:"
08"
0}!
1B!
1X
0+!
1="
1/"
0z!
1n!
1=!
0J!
0?!
02!
1>"
16!
0{!
1q!
1V!
0K!
0@!
04!
1}!
1f!
1Z!
1N!
1B"
0>"
0|!
0b!
0W!
0L!
0A!
1r!
05!
1l!
0c!
0X!
0M!
0}!
0B!
0y!
0m!
0d!
0Y!
0N!
1z!
0n!
0e!
0Z!
1{!
0q!
0f!
1|!
0r!
1}!
#22000
0!
0S
0T
#23000
1!
1S
1T
1C"
0@"
0q"
0G
0D"
19"
1*!
1A"
0<!
13!
0>!
11!
05
1+!
0X
0=!
1J!
1?!
12!
0E"
0B"
0V!
1K!
1@!
14!
0}!
15!
1b!
1W!
1L!
1A!
0l!
1c!
1X!
1M!
1y!
1m!
1d!
1Y!
0z!
1n!
1e!
0{!
1q!
0|!
#24000
0!
0S
0T
#25000
1!
1S
1T
0]"
0C"
1_"
0`"
1U
0k"
1q"
1G
0M
1F"
1D"
09"
06!
0*!
0A"
1-!
0("
0#"
1z!
0w!
1<!
03!
1>!
01!
0/
15
18"
1B!
1H"
0+!
1X
1|!
1{!
0q!
0e!
0Y!
0M!
0A!
04!
0$"
1=!
0J!
0?!
0G"
1B"
0)"
0?
1("
16!
0|!
1A!
1V!
0K!
0-
1I"
1}!
0B!
05!
1@
0b!
0W!
1,
1)"
0}!
1B!
1l!
0c!
0y!
0m!
1#"
0z!
1$"
#26000
0!
0S
0T
#27000
1!
1S
1T
1C"
0U
1p"
0q"
0G
1H
0D"
19"
1*!
1A"
0-!
1?!
0G!
0=!
0<!
13!
0>!
11!
14
05
1+!
0X
1|!
0{!
1q!
0n!
1e!
0d!
1Y!
0X!
1M!
0L!
14!
1H!
1G!
1=!
0?!
0B"
0("
0|!
0q!
0e!
0Y!
0M!
0H!
0@!
1N!
0B!
15!
0A!
0)"
#28000
0!
0S
0T
#29000
1!
1S
1T
0C"
1`"
0\"
1U
0j"
1o"
0p"
1q"
1G
0H
1I
0N
1D"
09"
06!
0*!
0J"
0A"
1-!
0&"
0$"
1K!
1H!
1J!
1?!
0=!
1<!
03!
1>!
01!
0.
13
04
15
0;"
0:"
08"
0I"
0*"
1Z!
0N!
1B!
0@
0+!
1X
1|!
1{!
1q!
1n!
1e!
1d!
1X!
1L!
1@!
04!
0'"
0K!
1=!
0J!
0?!
0,
1K"
1B"
1A
16!
0|!
0q!
0e!
1M!
1A!
1K!
1+
1*"
1}!
1r!
1f!
0Z!
0B!
05!
0}!
0r!
0f!
1N!
1B!
#30000
0!
0S
0T
#31000
1!
1S
1T
1C"
0U
1p"
0q"
0G
1H
0D"
19"
1*!
1A"
0-!
1?!
0G!
0=!
0<!
13!
0>!
11!
14
05
1+!
0X
1|!
0{!
1q!
0n!
1e!
0d!
1Y!
0X!
14!
1T!
0H!
1G!
1=!
0?!
0B"
0|!
0q!
0e!
0Y!
1U!
0T!
1H!
0@!
0*"
1Z!
0B!
15!
0U!
0A!
#32000
0!
0S
0T
#33000
1!
1S
1T
0C"
0^"
0_"
0`"
0i"
0["
1U
1n"
0p"
1q"
1G
0H
1J
1D"
09"
06!
0*!
0."
0,"
1L"
0A"
1-!
1W!
1U!
1J!
1?!
0=!
1<!
03!
1>!
01!
12
04
15
18"
0K"
1f!
0N!
1B!
0A
0+!
0="
0/"
1<"
1X
1|!
1{!
1q!
1n!
1e!
1d!
1X!
1@!
04!
0K!
1=!
0J!
0?!
0+
1M"
1B"
1B
16!
0|!
0q!
0e!
1Y!
1A!
1K!
1*
0B"
1(!
1}!
1r!
0Z!
1N!
0B!
05!
0}!
0r!
0f!
1Z!
1B!
#34000
0!
0S
0T
#35000
1!
1S
1T
1)!
0U
1p"
0q"
0G
1H
1*!
1A"
0-!
1?!
0G!
0=!
0<!
13!
0>!
11!
14
05
14"
1+!
0<"
0X
1|!
0{!
1q!
0n!
1e!
0d!
14!
1T!
0H!
1G!
1=!
0?!
1E"
1>"
06!
0|!
0q!
0e!
0_!
0U!
0T!
1H!
0@!
0>"
0(!
1f!
0B!
15!
1`!
1_!
1U!
0A!
0`!
#36000
0!
0S
0T
#37000
1!
1S
1T
1]"
0Z"
0)!
15"
1O
0F"
0N"
0*!
1%
0M"
0B
0H"
0+!
0*
1G"
1O"
1C
1?
1J"
1-
1)
1I"
1@
0L"
1,
1K"
1A
1N"
1+
1M"
1B
1*
0O"
0C
0)
#38000
0!
0S
0T
#39000
1!
1S
1T
#40000
0!
0S
0T
#41000
1!
1S
1T
#42000
0!
0S
0T
#43000
1!
1S
1T
#44000
0!
0S
0T
#45000
1!
1S
1T
#46000
0!
0S
0T
#47000
1!
1S
1T
#48000
0!
0S
0T
#49000
1!
1S
1T
#50000
0!
0S
0T
#51000
1!
1S
1T
#52000
0!
0S
0T
#53000
1!
1S
1T
#54000
0!
0S
0T
#55000
1!
1S
1T
#56000
0!
0S
0T
#57000
1!
1S
1T
#58000
0!
0S
0T
#59000
1!
1S
1T
#60000
0!
0S
0T
#61000
1!
1S
1T
#62000
0!
0S
0T
#63000
1!
1S
1T
#64000
0!
0S
0T
#65000
1!
1S
1T
#66000
0!
0S
0T
#67000
1!
1S
1T
#68000
0!
0S
0T
#69000
1!
1S
1T
#70000
0!
0S
0T
#71000
1!
1S
1T
#72000
0!
0S
0T
#73000
1!
1S
1T
#74000
0!
0S
0T
#75000
1!
1S
1T
#76000
0!
0S
0T
#77000
1!
1S
1T
#78000
0!
0S
0T
#79000
1!
1S
1T
#80000
b11101111 #
b11101110 #
0!
0S
0[!
0.!
0T
1]!
19!
0/!
1:!
1^!
00!
1;!
#81000
1!
1S
1T
#82000
0!
0S
0T
#83000
1!
1S
1T
#84000
0!
0S
0T
#85000
1$
1!
1S
13"
1T
06"
04"
#86000
0!
0S
0T
#87000
1!
1S
1T
07"
05"
0O
19"
1@!
1+!
1X
0%
08"
1V
16"
1A!
16!
0f!
1B!
#88000
0!
0S
0T
#89000
1!
1S
1T
17"
1d"
1g"
0h"
1Z"
1["
1\"
1W
1q"
1G
09"
0@!
0+!
0l!
1c!
1`!
1J!
1?!
0G!
0=!
1>!
15
18"
0V
0M"
0K"
0I"
1>"
0@
0A
0B
0A!
1y!
1m!
1d!
0K!
1@!
1T!
0H!
0J!
0?!
0*
0+
0,
0#"
1z!
1n!
1e!
0L!
1A!
0_!
0U!
1K!
0@!
0B!
1+"
1$"
1{!
1q!
0M!
1o!
0`!
1L!
0A!
1f!
1B!
1,"
1'"
1|!
1p!
1M!
1r!
0N!
0B!
1="
1/"
1("
1}!
1N!
1B"
0>"
1*"
1)"
#90000
0$
0!
0S
03"
0T
#91000
1!
1S
1T
1C"
1i"
0W
1j"
1k"
1l"
1m"
0p"
0H
1K
1L
1M
1N
0D"
19"
1*!
1."
0,"
0X
1&"
0+"
0$"
1#"
0z!
1w!
0v!
0p!
0y!
0m!
1l!
0c!
1`!
1J!
1?!
1G!
1=!
1.
1/
10
11
04
0B"
1+!
0="
0/"
0'"
1,"
1$"
0{!
1%"
0w!
1z!
0n!
1m!
0d!
0K!
1@!
0T!
1H!
0E"
0N!
1B!
1="
1/"
1'"
0|!
0-"
0&"
1{!
0q!
1n!
0e!
0L!
1A!
1_!
1U!
0."
1|!
1q!
0M!
0`!
#92000
0!
0S
0T
#93000
1!
1S
1T
0]"
0C"
1`"
1U
0o"
1p"
1H
0I
1F"
1D"
09"
06!
0*!
0A"
0="
0/"
0'"
1-!
0V!
1K!
0H!
0J!
0?!
0G!
0=!
03
14
1:"
08"
0Z!
1N!
1H"
0+!
1X
0|!
0q!
1e!
1d!
1L!
0A!
0W!
1V!
0K!
1H!
0G"
1>"
0?
0("
16!
0e!
1M!
1W!
0-
1I"
0*"
0}!
0r!
1Z!
0N!
0B!
1@
1,
0)"
0f!
1N!
#94000
0!
0S
0T
#95000
1!
1S
1T
1?"
0i"
0U
0j"
0k"
0l"
0m"
1o"
0p"
0H
1I
0K
0L
0M
0N
19"
1*!
1."
0,"
1A"
1="
1/"
1'"
0-!
1-"
1&"
0$"
0z!
0%"
1w!
1v!
1p!
0m!
0l!
1c!
0o!
1`!
1K!
1T!
0H!
1J!
1?!
1G!
1=!
0.
0/
00
01
13
04
1+!
0="
0/"
0X
1("
1|!
0{!
1q!
0n!
1e!
1A!
0."
0'"
0&"
0w!
1y!
1m!
0p!
0_!
0U!
0K!
0T!
1H!
1E"
0>"
1*"
0("
0|!
0q!
0#"
1z!
1n!
1o!
0`!
0L!
1_!
1U!
0*"
1f!
0N!
1B!
1)"
1+"
1$"
1{!
1q!
1p!
0M!
0o!
1`!
0)"
1,"
1'"
1|!
0p!
1="
1/"
#96000
0!
0S
0T
#97000
1!
1S
1T
1]"
1@"
0?"
1_"
0`"
0\"
1m"
0o"
1p"
1H
0I
1K
0F"
0A"
09"
06!
0*!
0J"
1l!
0c!
1o!
0`!
0V!
1K!
0H!
0J!
0?!
0G!
0=!
11
03
14
18"
0I"
1r!
0Z!
1N!
0@
0H"
1X
0+!
0y!
0m!
0d!
1p!
0W!
1L!
1V!
0K!
0@!
1H!
0,
1G"
1B"
1K"
1A
1?
1J"
1("
16!
1#"
0z!
0n!
0e!
0X!
1M!
1W!
0L!
0A!
1-
1+
1I"
1*"
1}!
1Z!
0N!
1@
0+"
0$"
0{!
0q!
0Y!
1X!
0M!
1,
0K"
1)"
0f!
1N!
0B!
0A
0,"
0'"
0|!
1Y!
0+
0r!
0Z!
0N!
0="
0/"
0("
0}!
1Z!
0B"
1>"
0*"
0)"
#98000
0!
0S
0T
#99000
1!
1S
1T
0@"
1?"
0m"
0p"
0H
0K
1A"
19"
1*!
0l!
1c!
0o!
1`!
1J!
1?!
1G!
1=!
01
04
0X
1+!
1y!
1m!
1d!
0p!
0V!
1K!
1@!
0H!
0>"
0#"
1z!
1n!
1e!
0W!
1L!
1A!
1f!
0Z!
1B!
1+"
1$"
1{!
1q!
0X!
1M!
1,"
1'"
1|!
0Y!
1="
1/"
#100000
0!
0S
0T
