LAB4/Lab4_part1/simulation/qsim/Lab4_part1.msim.vcd
$comment
	File created using the following command:
		vcd file Lab4_part1.msim.vcd -direction
$end
$date
	Mon Mar 18 17:42:41 2024
$end
$version
	ModelSim Version 2020.1
$end
$timescale
	1ps
$end

$scope module Lab4_part1_vlg_vec_tst $end
$var reg 1 ! CLEAR $end
$var reg 1 " CLK $end
$var reg 1 # IN $end
$var reg 8 $ Min [7:0] $end
$var reg 1 % Out $end
$var reg 8 & Qin [7:0] $end
$var reg 1 ' inM $end
$var reg 1 ( inQ $end
$var wire 1 ) CAT [3] $end
$var wire 1 * CAT [2] $end
$var wire 1 + CAT [1] $end
$var wire 1 , CAT [0] $end
$var wire 1 - H $end
$var wire 1 . HEX [0] $end
$var wire 1 / HEX [1] $end
$var wire 1 0 HEX [2] $end
$var wire 1 1 HEX [3] $end
$var wire 1 2 HEX [4] $end
$var wire 1 3 HEX [5] $end
$var wire 1 4 HEX [6] $end
$var wire 1 5 Pout [15] $end
$var wire 1 6 Pout [14] $end
$var wire 1 7 Pout [13] $end
$var wire 1 8 Pout [12] $end
$var wire 1 9 Pout [11] $end
$var wire 1 : Pout [10] $end
$var wire 1 ; Pout [9] $end
$var wire 1 < Pout [8] $end
$var wire 1 = Pout [7] $end
$var wire 1 > Pout [6] $end
$var wire 1 ? Pout [5] $end
$var wire 1 @ Pout [4] $end
$var wire 1 A Pout [3] $end
$var wire 1 B Pout [2] $end
$var wire 1 C Pout [1] $end
$var wire 1 D Pout [0] $end

$scope module i1 $end
$var wire 1 E gnd $end
$var wire 1 F vcc $end
$var wire 1 G unknown $end
$var tri1 1 H devclrn $end
$var tri1 1 I devpor $end
$var tri1 1 J devoe $end
$var wire 1 K inM~input_o $end
$var wire 1 L inQ~input_o $end
$var wire 1 M ~QUARTUS_CREATED_GND~I_combout $end
$var wire 1 N ~QUARTUS_CREATED_UNVM~~busy $end
$var wire 1 O ~QUARTUS_CREATED_ADC1~~eoc $end
$var wire 1 P ~QUARTUS_CREATED_ADC2~~eoc $end
$var wire 1 Q Pout[0]~output_o $end
$var wire 1 R Pout[1]~output_o $end
$var wire 1 S Pout[2]~output_o $end
$var wire 1 T Pout[3]~output_o $end
$var wire 1 U Pout[4]~output_o $end
$var wire 1 V Pout[5]~output_o $end
$var wire 1 W Pout[6]~output_o $end
$var wire 1 X Pout[7]~output_o $end
$var wire 1 Y Pout[8]~output_o $end
$var wire 1 Z Pout[9]~output_o $end
$var wire 1 [ Pout[10]~output_o $end
$var wire 1 \ Pout[11]~output_o $end
$var wire 1 ] Pout[12]~output_o $end
$var wire 1 ^ Pout[13]~output_o $end
$var wire 1 _ Pout[14]~output_o $end
$var wire 1 ` Pout[15]~output_o $end
$var wire 1 a HEX[6]~output_o $end
$var wire 1 b HEX[5]~output_o $end
$var wire 1 c HEX[4]~output_o $end
$var wire 1 d HEX[3]~output_o $end
$var wire 1 e HEX[2]~output_o $end
$var wire 1 f HEX[1]~output_o $end
$var wire 1 g HEX[0]~output_o $end
$var wire 1 h CAT[0]~output_o $end
$var wire 1 i CAT[1]~output_o $end
$var wire 1 j CAT[2]~output_o $end
$var wire 1 k CAT[3]~output_o $end
$var wire 1 l H~output_o $end
$var wire 1 m CLK~input_o $end
$var wire 1 n CLK~inputclkctrl_outclk $end
$var wire 1 o Mult|Ctrl|state[2]~4_combout $end
$var wire 1 p Mult|Ctrl|state[2]~5_combout $end
$var wire 1 q Out~input_o $end
$var wire 1 r Mult|Ctrl|state[1]~6_combout $end
$var wire 1 s Mult|Ctrl|state[1]~7_combout $end
$var wire 1 t Mult|Ctrl|Selector1~0_combout $end
$var wire 1 u Mult|Ctrl|Selector1~1_combout $end
$var wire 1 v Mult|Add0~0_combout $end
$var wire 1 w Mult|Add0~1_combout $end
$var wire 1 x Mult|Add0~2_combout $end
$var wire 1 y Mult|C0~0_combout $end
$var wire 1 z Mult|Ctrl|state[4]~0_combout $end
$var wire 1 { Mult|Ctrl|state[4]~1_combout $end
$var wire 1 | Mult|Ctrl|state[0]~2_combout $end
$var wire 1 } Mult|Ctrl|state[0]~3_combout $end
$var wire 1 ~ IN~input_o $end
$var wire 1 !! IN~inputclkctrl_outclk $end
$var wire 1 "! Qin[0]~input_o $end
$var wire 1 #! Multiplier|Q[0]~feeder_combout $end
$var wire 1 $! CLEAR~input_o $end
$var wire 1 %! Qin[1]~input_o $end
$var wire 1 &! Multiplier|Q[1]~feeder_combout $end
$var wire 1 '! Qin[3]~input_o $end
$var wire 1 (! Multiplier|Q[3]~feeder_combout $end
$var wire 1 )! Qin[5]~input_o $end
$var wire 1 *! Multiplier|Q[5]~feeder_combout $end
$var wire 1 +! Qin[7]~input_o $end
$var wire 1 ,! Min[7]~input_o $end
$var wire 1 -! Min[6]~input_o $end
$var wire 1 .! Min[5]~input_o $end
$var wire 1 /! Multiplicand|Q[5]~feeder_combout $end
$var wire 1 0! Min[4]~input_o $end
$var wire 1 1! Multiplicand|Q[4]~feeder_combout $end
$var wire 1 2! Min[3]~input_o $end
$var wire 1 3! Multiplicand|Q[3]~feeder_combout $end
$var wire 1 4! Min[2]~input_o $end
$var wire 1 5! Multiplicand|Q[2]~feeder_combout $end
$var wire 1 6! Min[1]~input_o $end
$var wire 1 7! Multiplicand|Q[1]~feeder_combout $end
$var wire 1 8! Min[0]~input_o $end
$var wire 1 9! Multiplicand|Q[0]~feeder_combout $end
$var wire 1 :! Mult|Add1~1 $end
$var wire 1 ;! Mult|Add1~4 $end
$var wire 1 <! Mult|Add1~7 $end
$var wire 1 =! Mult|Add1~10 $end
$var wire 1 >! Mult|Add1~13 $end
$var wire 1 ?! Mult|Add1~16 $end
$var wire 1 @! Mult|Add1~19 $end
$var wire 1 A! Mult|Add1~22 $end
$var wire 1 B! Mult|Add1~24_combout $end
$var wire 1 C! Mult|Add1~26_combout $end
$var wire 1 D! Mult|Add1~21_combout $end
$var wire 1 E! Mult|Add1~23_combout $end
$var wire 1 F! Mult|RegA[0]~0_combout $end
$var wire 1 G! Mult|Add1~18_combout $end
$var wire 1 H! Mult|Add1~20_combout $end
$var wire 1 I! Mult|Add1~15_combout $end
$var wire 1 J! Mult|Add1~17_combout $end
$var wire 1 K! Mult|Add1~12_combout $end
$var wire 1 L! Mult|Add1~14_combout $end
$var wire 1 M! Mult|Add1~9_combout $end
$var wire 1 N! Mult|Add1~11_combout $end
$var wire 1 O! Mult|Add1~6_combout $end
$var wire 1 P! Mult|Add1~8_combout $end
$var wire 1 Q! Mult|Add1~3_combout $end
$var wire 1 R! Mult|Add1~5_combout $end
$var wire 1 S! Mult|Add1~0_combout $end
$var wire 1 T! Mult|Add1~2_combout $end
$var wire 1 U! Mult|RegQ~8_combout $end
$var wire 1 V! Mult|RegQ[0]~1_combout $end
$var wire 1 W! Qin[6]~input_o $end
$var wire 1 X! Mult|RegQ~7_combout $end
$var wire 1 Y! Mult|RegQ~6_combout $end
$var wire 1 Z! Qin[4]~input_o $end
$var wire 1 [! Mult|RegQ~5_combout $end
$var wire 1 \! Mult|RegQ~4_combout $end
$var wire 1 ]! Qin[2]~input_o $end
$var wire 1 ^! Mult|RegQ~3_combout $end
$var wire 1 _! Mult|RegQ~2_combout $end
$var wire 1 `! Mult|RegQ~0_combout $end
$var wire 1 a! Mult|Ctrl|state [4] $end
$var wire 1 b! Mult|Ctrl|state [3] $end
$var wire 1 c! Mult|Ctrl|state [2] $end
$var wire 1 d! Mult|Ctrl|state [1] $end
$var wire 1 e! Mult|Ctrl|state [0] $end
$var wire 1 f! Mult|RegA [8] $end
$var wire 1 g! Mult|RegA [7] $end
$var wire 1 h! Mult|RegA [6] $end
$var wire 1 i! Mult|RegA [5] $end
$var wire 1 j! Mult|RegA [4] $end
$var wire 1 k! Mult|RegA [3] $end
$var wire 1 l! Mult|RegA [2] $end
$var wire 1 m! Mult|RegA [1] $end
$var wire 1 n! Mult|RegA [0] $end
$var wire 1 o! Mult|Count [2] $end
$var wire 1 p! Mult|Count [1] $end
$var wire 1 q! Mult|Count [0] $end
$var wire 1 r! Multiplicand|Q [7] $end
$var wire 1 s! Multiplicand|Q [6] $end
$var wire 1 t! Multiplicand|Q [5] $end
$var wire 1 u! Multiplicand|Q [4] $end
$var wire 1 v! Multiplicand|Q [3] $end
$var wire 1 w! Multiplicand|Q [2] $end
$var wire 1 x! Multiplicand|Q [1] $end
$var wire 1 y! Multiplicand|Q [0] $end
$var wire 1 z! Mult|RegQ [7] $end
$var wire 1 {! Mult|RegQ [6] $end
$var wire 1 |! Mult|RegQ [5] $end
$var wire 1 }! Mult|RegQ [4] $end
$var wire 1 ~! Mult|RegQ [3] $end
$var wire 1 !" Mult|RegQ [2] $end
$var wire 1 "" Mult|RegQ [1] $end
$var wire 1 #" Mult|RegQ [0] $end
$var wire 1 $" Multiplier|Q [7] $end
$var wire 1 %" Multiplier|Q [6] $end
$var wire 1 &" Multiplier|Q [5] $end
$var wire 1 '" Multiplier|Q [4] $end
$var wire 1 (" Multiplier|Q [3] $end
$var wire 1 )" Multiplier|Q [2] $end
$var wire 1 *" Multiplier|Q [1] $end
$var wire 1 +" Multiplier|Q [0] $end
$var wire 1 ," Mult|RegM [7] $end
$var wire 1 -" Mult|RegM [6] $end
$var wire 1 ." Mult|RegM [5] $end
$var wire 1 /" Mult|RegM [4] $end
$var wire 1 0" Mult|RegM [3] $end
$var wire 1 1" Mult|RegM [2] $end
$var wire 1 2" Mult|RegM [1] $end
$var wire 1 3" Mult|RegM [0] $end
$upscope $end
$upscope $end
$enddefinitions $end
#0
$dumpvars
1!
1"
1#
b1111111 $
1%
b1 &
x'
x(
0,
0+
0*
0)
0-
04
03
02
01
00
0/
0.
0D
0C
0B
0A
0@
0?
0>
0=
0<
0;
0:
09
08
07
06
05
0E
1F
xG
1H
1I
1J
xK
xL
0M
zN
zO
zP
0Q
0R
0S
0T
0U
0V
0W
0X
0Y
0Z
0[
0\
0]
0^
0_
0`
0a
0b
0c
0d
0e
0f
0g
0h
0i
0j
0k
0l
1m
1n
0o
0p
1q
0r
1s
0t
0u
0v
0w
0x
0y
0z
0{
0|
1}
1~
1!!
1"!
1#!
1$!
0%!
0&!
0'!
0(!
0)!
0*!
0+!
0,!
1-!
1.!
1/!
10!
11!
12!
13!
14!
15!
16!
17!
18!
19!
0:!
1;!
0<!
1=!
0>!
1?!
0@!
1A!
0B!
0C!
0D!
0E!
1F!
0G!
0H!
0I!
0J!
0K!
0L!
0M!
0N!
0O!
0P!
0Q!
0R!
0S!
0T!
0U!
1V!
0W!
0X!
0Y!
0Z!
0[!
0\!
0]!
0^!
0_!
0`!
0e!
0d!
0c!
0b!
0a!
0n!
0m!
0l!
0k!
0j!
0i!
0h!
0g!
0f!
0q!
0p!
0o!
0y!
0x!
0w!
0v!
0u!
0t!
0s!
0r!
0#"
0""
0!"
0~!
0}!
0|!
0{!
0z!
0+"
0*"
0)"
0("
0'"
0&"
0%"
0$"
03"
02"
01"
00"
0/"
0."
0-"
0,"
$end
#500
0"
0m
0n
1d!
1e!
1|
1t
0V!
0F!
1o
0s
1u
#1000
1"
1m
1n
#1500
0"
0m
0n
0d!
1b!
1z
0t
1V!
1F!
0o
1s
1v
0u
#2000
1"
1m
1n
#2500
0!
0"
0m
0$!
0n
1d!
0b!
1q!
0z
1t
0V!
0F!
1o
0s
1u
#3000
1"
1m
1n
#3500
0"
0m
0n
0d!
1b!
1z
0t
1V!
1F!
0o
1s
1w
0v
0u
#4000
1"
1m
1n
#4500
0"
0m
0n
1d!
0b!
0q!
1p!
0z
1t
0V!
0F!
1o
0s
1u
#5000
0#
1!
1"
1m
1$!
0~
0!!
1n
1+"
1s!
1t!
1u!
1v!
1w!
1x!
1y!
#5500
0"
0m
0n
0d!
1b!
1z
0t
1V!
1F!
0o
1s
1v
0u
#6000
1"
1m
1n
#6500
0"
0m
0n
1d!
0b!
1q!
0z
1t
0V!
0F!
1o
0s
1u
#7000
1"
1m
1n
#7500
0"
0m
0n
0d!
1b!
1z
0t
1V!
1F!
0o
1s
1x
0w
0v
0u
#8000
1"
1m
1n
#8500
0"
0m
0n
1d!
0b!
0q!
0p!
1o!
0z
1t
0V!
0F!
1o
0s
1u
#9000
1"
1m
1n
#9500
0"
0m
0n
0d!
1b!
1z
0t
1V!
1F!
0o
1s
1v
0u
#10000
0%
1#
1"
1m
1~
0q
1!!
1n
0b!
0e!
0|
0z
0v
1`!
0}
1}
#10500
0"
0m
0n
0o!
1-"
1."
1/"
10"
11"
12"
13"
1#"
1Q
1G!
1I!
1K!
1M!
1O!
1Q!
1S!
1D
0x
#11000
1"
1m
1n
#11500
0"
0m
0n
#12000
1"
1m
1n
#12500
0"
0m
0n
#13000
1"
1m
1n
#13500
0"
0m
0n
#14000
1"
1m
1n
#14500
0"
0m
0n
#15000
1%
1"
1m
1q
1n
#15500
0"
0m
0n
1d!
1e!
1|
0V!
0F!
1o
0s
0`!
1p
#16000
1"
1m
1n
#16500
0"
0m
0n
1c!
0d!
1F!
1t
1r
1T!
1R!
1P!
1N!
1L!
1J!
1H!
0p
1u
#17000
1"
1m
1n
#17500
0"
0m
0n
0c!
1b!
1h!
1i!
1j!
1k!
1l!
1m!
1n!
1Y
1Z
1[
1\
1]
1^
1_
1z
0t
0r
1V!
0o
1@!
0G!
0?!
0I!
1>!
0K!
0=!
0M!
1<!
0O!
0;!
0Q!
1:!
0S!
16
17
18
19
1:
1;
1<
0H!
1v
1U!
1D!
1G!
1I!
1K!
1M!
1O!
1Q!
0u
1s
#18000
1"
1m
1n
#18500
0"
0m
0n
1d!
0b!
1q!
0h!
1z!
0#"
0Q
1X
0_
0z
1t
0V!
0F!
1o
0G!
06
1=
0D
0s
0J!
1X!
1u
#19000
1"
1m
1n
#19500
0"
0m
0n
0d!
1b!
1z
0t
1V!
1F!
0o
1s
1w
0v
0u
#20000
1"
1m
1n
#20500
0"
0m
0n
1d!
0b!
0q!
1p!
0i!
1{!
1W
0^
0z
1t
0V!
0F!
1o
0I!
07
1>
0s
0L!
1Y!
1u
#21000
1"
1m
1n
#21500
0"
0m
0n
0d!
1b!
1z
0t
1V!
1F!
0o
1s
1v
0u
#22000
1"
1m
1n
#22500
0"
0m
0n
1d!
0b!
1q!
0j!
1|!
1V
0]
0z
1t
0V!
0F!
1o
0K!
08
1?
0s
0N!
1[!
1u
#23000
1"
1m
1n
#23500
0"
0m
0n
0d!
1b!
1z
0t
1V!
1F!
0o
1s
1x
0w
0v
0u
#24000
1"
1m
1n
#24500
0"
0m
0n
1d!
0b!
0q!
0p!
1o!
0k!
1}!
1U
0\
0z
1t
0V!
0F!
1o
0M!
09
1@
0s
0P!
1\!
1u
#25000
1"
1m
1n
#25500
0"
0m
0n
0d!
1b!
1z
0t
1V!
1F!
0o
1s
1v
0u
#26000
1"
1m
1n
#26500
0"
0m
0n
1d!
0b!
1q!
0l!
1~!
1T
0[
0z
1t
0V!
0F!
1o
0O!
0:
1A
0s
0R!
1^!
1u
#27000
1"
1m
1n
#27500
0"
0m
0n
0d!
1b!
1z
0t
1V!
1F!
0o
1s
1w
0v
0u
#28000
1"
1m
1n
#28500
0"
0m
0n
1d!
0b!
0q!
1p!
0m!
1!"
1S
0Z
0z
1t
0V!
0F!
1o
0Q!
0;
1B
0s
0T!
1_!
1u
#29000
1"
1m
1n
#29500
0"
0m
0n
0d!
1b!
1z
0t
1V!
1F!
0o
1s
1v
0u
#30000
1"
1m
1n
#30500
0"
0m
0n
1d!
0b!
1q!
0n!
1""
1R
0Y
0z
1t
0V!
0F!
1o
1y
0:!
1S!
0<
1C
0s
0U!
1`!
1;!
1Q!
1u
0<!
1O!
1=!
1M!
0>!
1K!
1?!
1I!
0@!
1G!
0D!
#31000
1"
1m
1n
#31500
0"
0m
0n
0d!
1b!
1z
0t
1V!
1F!
1r
0o
1s
0x
0w
0v
1{
0u
0s
#32000
1"
1m
1n
#32500
0"
0m
0n
0b!
0q!
0p!
0o!
1a!
0z!
1#"
1Q
0X
1l
0V!
0F!
0z
0y
1-
0=
1D
0X!
#33000
1"
1m
1n
#33500
0"
0m
0n
#34000
1"
1m
1n
#34500
0"
0m
0n
#35000
1"
1m
1n
#35500
0"
0m
0n
#36000
1"
1m
1n
#36500
0"
0m
0n
#37000
1"
1m
1n
#37500
0"
0m
0n
#38000
1"
1m
1n
#38500
0"
0m
0n
#39000
1"
1m
1n
#39500
0"
0m
0n
#40000
1"
1m
1n
#40500
0"
0m
0n
#41000
1"
1m
1n
#41500
0"
0m
0n
#42000
1"
1m
1n
#42500
0"
0m
0n
#43000
1"
1m
1n
#43500
0"
0m
0n
#44000
1"
1m
1n
#44500
0"
0m
0n
#45000
1"
1m
1n
#45500
0"
0m
0n
#46000
1"
1m
1n
#46500
0"
0m
0n
#47000
1"
1m
1n
#47500
0"
0m
0n
#48000
1"
1m
1n
#48500
0"
0m
0n
#49000
1"
1m
1n
#49500
0"
0m
0n
#50000
1"
1m
1n
#50500
0"
0m
0n
#51000
1"
1m
1n
#51500
0"
0m
0n
#52000
1"
1m
1n
#52500
0"
0m
0n
#53000
1"
1m
1n
#53500
0"
0m
0n
#54000
1"
1m
1n
#54500
0"
0m
0n
#55000
1"
1m
1n
#55500
0"
0m
0n
#56000
1"
1m
1n
#56500
0"
0m
0n
#57000
1"
1m
1n
#57500
0"
0m
0n
#58000
1"
1m
1n
#58500
0"
0m
0n
#59000
1"
1m
1n
#59500
0"
0m
0n
#60000
1"
1m
1n
#60500
0"
0m
0n
#61000
1"
1m
1n
#61500
0"
0m
0n
#62000
1"
1m
1n
#62500
0"
0m
0n
#63000
1"
1m
1n
#63500
0"
0m
0n
#64000
1"
1m
1n
#64500
0"
0m
0n
#65000
1"
1m
1n
#65500
0"
0m
0n
#66000
1"
1m
1n
#66500
0"
0m
0n
#67000
1"
1m
1n
#67500
0"
0m
0n
#68000
1"
1m
1n
#68500
0"
0m
0n
#69000
1"
1m
1n
#69500
0"
0m
0n
#70000
1"
1m
1n
#70500
0"
0m
0n
#71000
1"
1m
1n
#71500
0"
0m
0n
#72000
1"
1m
1n
#72500
0"
0m
0n
#73000
1"
1m
1n
#73500
0"
0m
0n
#74000
1"
1m
1n
#74500
0"
0m
0n
#75000
1"
1m
1n
#75500
0"
0m
0n
#76000
1"
1m
1n
#76500
0"
0m
0n
#77000
1"
1m
1n
#77500
0"
0m
0n
#78000
1"
1m
1n
#78500
0"
0m
0n
#79000
1"
1m
1n
#79500
0"
0m
0n
#80000
b111111 $
b11111 $
b10111 $
b10101 $
b100001 &
b101001 &
b101011 &
b101010 &
1"
1m
0-!
0.!
02!
06!
1)!
1'!
1%!
0"!
1n
0/!
03!
07!
1*!
1(!
1&!
0#!
#80500
0"
0m
0n
#81000
1"
1m
1n
#81500
0"
0m
0n
#82000
1"
1m
1n
#82500
0!
0"
0m
0$!
0n
0+"
0s!
0t!
0u!
0v!
0w!
0x!
0y!
#83000
1"
1m
1n
#83500
0"
0m
0n
#84000
1"
1m
1n
#84500
0"
0m
0n
#85000
0#
1!
1"
1m
1$!
0~
0!!
1n
1*"
1("
1&"
1u!
1w!
1y!
#85500
0"
0m
0n
#86000
1"
1m
1n
#86500
0"
0m
0n
#87000
1"
1m
1n
#87500
0"
0m
0n
#88000
1"
1m
1n
#88500
0"
0m
0n
#89000
1"
1m
1n
#89500
0"
0m
0n
#90000
0%
1#
1"
1m
1~
0q
1!!
1n
0e!
0a!
0l
1V!
1F!
0|
0r
0-
0`!
0^!
0[!
0}
0{
1}
1s
#90500
0"
0m
0n
0-"
0."
00"
02"
0{!
0}!
0!"
0#"
0Q
0S
0U
0W
0G!
0I!
0M!
0Q!
0>
0@
0B
0D
#91000
1"
1m
1n
#91500
0"
0m
0n
#92000
1"
1m
1n
#92500
0"
0m
0n
#93000
1"
1m
1n
#93500
0"
0m
0n
#94000
1"
1m
1n
#94500
0"
0m
0n
#95000
1%
1"
1m
1q
1n
#95500
0"
0m
0n
1d!
1e!
1|
1t
0V!
0F!
1o
0s
1`!
0_!
1^!
0\!
1[!
0Y!
1u
#96000
1"
1m
1n
#96500
0"
0m
0n
0d!
1b!
1z
0t
1V!
1F!
0o
1s
1v
0u
#97000
1"
1m
1n
#97500
0"
0m
0n
1d!
0b!
1q!
0|!
1}!
0~!
1!"
0""
1#"
1Q
0R
1S
0T
1U
0V
0z
0V!
0F!
1o
0?
1@
0A
1B
0C
1D
0s
0[!
1\!
0^!
1_!
0`!
1p
#98000
1"
1m
1n
#98500
0"
0m
0n
1c!
0d!
1F!
1t
1r
1T!
1P!
1L!
0p
1u
#99000
1"
1m
1n
#99500
0"
0m
0n
0c!
1b!
1j!
1l!
1n!
1Y
1[
1]
1z
0t
0r
1V!
0o
1>!
0K!
1<!
0O!
1:!
0S!
18
1:
1<
0T!
1R!
0P!
1N!
0L!
1w
0v
1U!
1I!
1M!
1Q!
0u
1s
#100000
1"
1m
1n
#100500
0"
0m
0n
1d!
0b!
0q!
1p!
0j!
1k!
0l!
1m!
0n!
1z!
0}!
1~!
0!"
1""
0#"
0Q
1R
0S
1T
0U
1X
0Y
1Z
0[
1\
0]
0z
1t
0V!
0F!
1o
0>!
1K!
0=!
0M!
0<!
1O!
0;!
0Q!
0:!
1S!
08
19
0:
1;
0<
1=
0@
1A
0B
1C
0D
0s
0N!
1P!
0R!
1T!
0U!
1X!
0\!
1^!
0_!
1`!
0I!
1>!
0K!
1=!
1M!
1<!
0O!
1;!
1Q!
1u
1I!
0>!
1K!
0=!
0M!
0<!
1O!
0I!
1>!
0K!
1=!
1M!
1I!
0>!
1K!
0I!
#101000
1"
1m
1n
#101500
0"
0m
0n
0d!
1b!
1z
0t
1V!
1F!
0o
1s
1v
0u
#102000
1"
1m
1n
#102500
0"
0m
0n
1d!
0b!
1q!
0k!
1l!
0m!
1n!
0z!
1{!
0~!
1!"
0""
1#"
1Q
0R
1S
0T
1W
0X
1Y
0Z
1[
0\
0z
0V!
0F!
1o
0M!
1<!
0O!
0Q!
1:!
0S!
09
1:
0;
1<
0=
1>
0A
1B
0C
1D
0s
0P!
1R!
0T!
1U!
0X!
1Y!
0^!
1_!
0`!
1M!
1Q!
1p
#103000
1"
1m
1n
#103500
0"
0m
0n
1c!
0d!
1F!
1t
1r
1N!
1L!
0p
1u
#104000
1"
1m
1n
#104500
0"
0m
0n
0c!
1b!
1j!
1k!
0l!
1m!
0n!
0Y
1Z
0[
1\
1]
1z
0t
0r
1V!
0o
1>!
0K!
0=!
0M!
0<!
1O!
0;!
0Q!
0:!
1S!
18
19
0:
1;
0<
1T!
0R!
1P!
0L!
1x
0w
0v
0U!
1I!
1K!
1=!
1M!
1<!
0O!
1;!
1Q!
0u
1s
0K!
0=!
0M!
0<!
1O!
1K!
1=!
1M!
0K!
#105000
1"
1m
1n
#105500
0"
0m
0n
1d!
0b!
0q!
0p!
1o!
0j!
1l!
0m!
1n!
0{!
1|!
0!"
1""
0#"
0Q
1R
0S
1V
0W
1Y
0Z
1[
0]
0z
1t
0V!
0F!
1o
0>!
1K!
1<!
0O!
0Q!
1:!
0S!
08
1:
0;
1<
0>
1?
0B
1C
0D
0s
0N!
1R!
0T!
1U!
0Y!
1[!
0_!
1`!
0I!
0=!
0M!
1Q!
1u
1>!
0K!
1I!
#106000
1"
1m
1n
#106500
0"
0m
0n
0d!
1b!
1z
0t
1V!
1F!
0o
1s
1v
0u
#107000
1"
1m
1n
#107500
0"
0m
0n
1d!
0b!
1q!
0k!
1m!
0n!
1z!
0|!
1}!
0""
1#"
1Q
0R
1U
0V
1X
0Y
1Z
0\
0z
0V!
0F!
1o
1=!
1M!
0;!
0Q!
0:!
1S!
09
1;
0<
1=
0?
1@
0C
1D
0s
0P!
1T!
0U!
1X!
0[!
1\!
0`!
0>!
1K!
1O!
1;!
1Q!
1p
0I!
0O!
#108000
1"
1m
1n
#108500
0"
0m
0n
1c!
0d!
1F!
1t
1r
1N!
1L!
0p
1u
#109000
1"
1m
1n
#109500
0"
0m
0n
0c!
1b!
1j!
1k!
0l!
1n!
1Y
0[
1\
1]
1z
0t
0r
1V!
0o
1>!
0K!
0=!
0M!
0<!
1O!
1:!
0S!
18
19
0:
1<
0R!
1P!
0L!
1w
0v
1U!
1I!
1K!
1=!
1M!
0;!
0Q!
0u
1s
0K!
1<!
0O!
0=!
0M!
1K!
#110000
1"
1m
1n
#110500
0"
0m
0n
1d!
0b!
0q!
1p!
0j!
1l!
0m!
1{!
0}!
1~!
0#"
0Q
1T
0U
1W
0Z
1[
0]
0z
1t
0V!
0F!
1o
0K!
1O!
1;!
1Q!
08
1:
0;
1>
0@
1A
0D
0s
0N!
1R!
0T!
1Y!
0\!
1^!
0O!
1u
#111000
1"
1m
1n
#111500
0"
0m
0n
0d!
1b!
1z
0t
1V!
1F!
0o
1s
1v
0u
#112000
1"
1m
1n
#112500
0"
0m
0n
1d!
0b!
1q!
0k!
1m!
0n!
1|!
0~!
1!"
1S
0T
1V
0Y
1Z
0\
0z
1t
0V!
0F!
1o
1y
1=!
1M!
0;!
0Q!
0:!
1S!
09
1;
0<
1?
0A
1B
0s
0P!
1T!
0U!
1[!
0^!
1_!
0>!
1K!
1O!
1;!
1Q!
1u
0I!
0O!
#113000
1"
1m
1n
#113500
0"
0m
0n
0d!
1b!
1z
0t
1V!
1F!
1r
0o
1s
0x
0w
0v
1{
0u
0s
#114000
1"
1m
1n
#114500
0"
0m
0n
0b!
0q!
0p!
0o!
1a!
0l!
1n!
0z!
1}!
0!"
1""
1R
0S
1U
0X
1Y
0[
1l
0V!
0F!
0z
0y
0<!
1O!
1:!
0S!
1-
0:
1<
0=
1@
0B
1C
0R!
1U!
0X!
1\!
0_!
1`!
0M!
0;!
0Q!
1<!
0O!
1M!
#115000
1"
1m
1n
#115500
0"
0m
0n
#116000
1"
1m
1n
#116500
0"
0m
0n
#117000
1"
1m
1n
#117500
0"
0m
0n
#118000
1"
1m
1n
#118500
0"
0m
0n
#119000
1"
1m
1n
#119500
0"
0m
0n
#120000
1"
1m
1n
#120500
0"
0m
0n
#121000
1"
1m
1n
#121500
0"
0m
0n
#122000
1"
1m
1n
#122500
0"
0m
0n
#123000
1"
1m
1n
#123500
0"
0m
0n
#124000
1"
1m
1n
#124500
0"
0m
0n
#125000
1"
1m
1n
#125500
0"
0m
0n
#126000
1"
1m
1n
#126500
0"
0m
0n
#127000
1"
1m
1n
#127500
0"
0m
0n
#128000
1"
1m
1n
#128500
0"
0m
0n
#129000
1"
1m
1n
#129500
0"
0m
0n
#130000
1"
1m
1n
#130500
0"
0m
0n
#131000
1"
1m
1n
#131500
0"
0m
0n
#132000
1"
1m
1n
#132500
0"
0m
0n
#133000
1"
1m
1n
#133500
0"
0m
0n
#134000
1"
1m
1n
#134500
0"
0m
0n
#135000
1"
1m
1n
#135500
0"
0m
0n
#136000
1"
1m
1n
#136500
0"
0m
0n
#137000
1"
1m
1n
#137500
0"
0m
0n
#138000
1"
1m
1n
#138500
0"
0m
0n
#139000
1"
1m
1n
#139500
0"
0m
0n
#140000
1"
1m
1n
#140500
0"
0m
0n
#141000
1"
1m
1n
#141500
0"
0m
0n
#142000
1"
1m
1n
#142500
0"
0m
0n
#143000
1"
1m
1n
#143500
0"
0m
0n
#144000
1"
1m
1n
#144500
0"
0m
0n
#145000
1"
1m
1n
#145500
0"
0m
0n
#146000
1"
1m
1n
#146500
0"
0m
0n
#147000
1"
1m
1n
#147500
0"
0m
0n
#148000
1"
1m
1n
#148500
0"
0m
0n
#149000
1"
1m
1n
#149500
0"
0m
0n
#150000
1"
1m
1n
#150500
0"
0m
0n
#151000
1"
1m
1n
#151500
0"
0m
0n
#152000
1"
1m
1n
#152500
0"
0m
0n
#153000
1"
1m
1n
#153500
0"
0m
0n
#154000
1"
1m
1n
#154500
0"
0m
0n
#155000
1"
1m
1n
#155500
0"
0m
0n
#156000
1"
1m
1n
#156500
0"
0m
0n
#157000
1"
1m
1n
#157500
0"
0m
0n
#158000
1"
1m
1n
#158500
0"
0m
0n
#159000
1"
1m
1n
#159500
0"
0m
0n
#160000
b10101010 &
b11101010 &
b11111010 &
b11111110 &
b1010101 $
b1110101 $
b1111101 $
b1111111 $
b11111111 &
1"
1m
1+!
1W!
1Z!
1]!
1"!
1-!
1.!
12!
16!
1n
1#!
1/!
13!
17!
#160500
0"
0m
0n
#161000
1"
1m
1n
#161500
0"
0m
0n
#162000
1"
1m
1n
#162500
0!
0"
0m
0$!
0n
0*"
0("
0&"
0u!
0w!
0y!
#163000
1"
1m
1n
#163500
0"
0m
0n
#164000
1"
1m
1n
#164500
0"
0m
0n
#165000
0#
1!
1"
1m
1$!
0~
0!!
1n
1+"
1*"
1("
1&"
1$"
1s!
1t!
1u!
1v!
1w!
1x!
1y!
1%"
1'"
1)"
#165500
0"
0m
0n
#166000
1"
1m
1n
#166500
0"
0m
0n
#167000
1"
1m
1n
#167500
0"
0m
0n
#168000
1"
1m
1n
#168500
0"
0m
0n
#169000
1"
1m
1n
#169500
0"
0m
0n
#170000
0%
1#
1"
1m
1~
0q
1!!
1n
0e!
0a!
0l
1V!
1F!
0|
0r
0-
1_!
1^!
1X!
0}
0{
1}
1s
#170500
0"
0m
0n
1-"
1."
10"
12"
0m!
0n!
1z!
1~!
1!"
1#"
1Q
1S
1T
1X
0Y
0Z
1G!
1I!
0=!
0M!
0:!
1S!
0;
0<
1=
1A
1B
1D
0T!
1>!
0K!
1;!
1Q!
0?!
0I!
0<!
1O!
1@!
0G!
1=!
1M!
1D!
0>!
1K!
1?!
1I!
0@!
1G!
0D!
#171000
1"
1m
1n
#171500
0"
0m
0n
#172000
1"
1m
1n
#172500
0"
0m
0n
#173000
1"
1m
1n
#173500
0"
0m
0n
#174000
1"
1m
1n
