Lab5/Lab5/simulation/qsim/Lab5.msim.vcd
$comment
	File created using the following command:
		vcd file Lab5.msim.vcd -direction
$end
$date
	Mon Apr 01 22:26:40 2024
$end
$version
	ModelSim Version 2020.1
$end
$timescale
	1ps
$end

$scope module Divider_vlg_vec_tst $end
$var reg 1 ! CLOCK $end
$var reg 16 " Dividend [15:0] $end
$var reg 8 # Divisor [7:0] $end
$var reg 1 $ START $end
$var wire 1 % DONE $end
$var wire 1 & Quotient [7] $end
$var wire 1 ' Quotient [6] $end
$var wire 1 ( Quotient [5] $end
$var wire 1 ) Quotient [4] $end
$var wire 1 * Quotient [3] $end
$var wire 1 + Quotient [2] $end
$var wire 1 , Quotient [1] $end
$var wire 1 - Quotient [0] $end
$var wire 1 . Remainder [7] $end
$var wire 1 / Remainder [6] $end
$var wire 1 0 Remainder [5] $end
$var wire 1 1 Remainder [4] $end
$var wire 1 2 Remainder [3] $end
$var wire 1 3 Remainder [2] $end
$var wire 1 4 Remainder [1] $end
$var wire 1 5 Remainder [0] $end

$scope module i1 $end
$var wire 1 6 gnd $end
$var wire 1 7 vcc $end
$var wire 1 8 unknown $end
$var tri1 1 9 devclrn $end
$var tri1 1 : devpor $end
$var tri1 1 ; devoe $end
$var wire 1 < ~QUARTUS_CREATED_GND~I_combout $end
$var wire 1 = ~QUARTUS_CREATED_UNVM~~busy $end
$var wire 1 > ~QUARTUS_CREATED_ADC1~~eoc $end
$var wire 1 ? ~QUARTUS_CREATED_ADC2~~eoc $end
$var wire 1 @ Quotient[0]~output_o $end
$var wire 1 A Quotient[1]~output_o $end
$var wire 1 B Quotient[2]~output_o $end
$var wire 1 C Quotient[3]~output_o $end
$var wire 1 D Quotient[4]~output_o $end
$var wire 1 E Quotient[5]~output_o $end
$var wire 1 F Quotient[6]~output_o $end
$var wire 1 G Quotient[7]~output_o $end
$var wire 1 H Remainder[0]~output_o $end
$var wire 1 I Remainder[1]~output_o $end
$var wire 1 J Remainder[2]~output_o $end
$var wire 1 K Remainder[3]~output_o $end
$var wire 1 L Remainder[4]~output_o $end
$var wire 1 M Remainder[5]~output_o $end
$var wire 1 N Remainder[6]~output_o $end
$var wire 1 O Remainder[7]~output_o $end
$var wire 1 P DONE~output_o $end
$var wire 1 Q CLOCK~input_o $end
$var wire 1 R CLOCK~inputclkctrl_outclk $end
$var wire 1 S DivCtrl|State.Adds~q $end
$var wire 1 T START~input_o $end
$var wire 1 U DivCtrl|Rshift~combout $end
$var wire 1 V Dividend[15]~input_o $end
$var wire 1 W Divisor[7]~input_o $end
$var wire 1 X DivCtrl|Selector3~0_combout $end
$var wire 1 Y DivCtrl|State.Restore~q $end
$var wire 1 Z AdSb|Add0~23_combout $end
$var wire 1 [ Dividend[14]~input_o $end
$var wire 1 \ Divisor[6]~input_o $end
$var wire 1 ] AdSb|Add0~20_combout $end
$var wire 1 ^ Divisor[5]~input_o $end
$var wire 1 _ AdSb|Add0~17_combout $end
$var wire 1 ` Dividend[13]~input_o $end
$var wire 1 a Dividend[12]~input_o $end
$var wire 1 b Divisor[4]~input_o $end
$var wire 1 c AdSb|Add0~14_combout $end
$var wire 1 d Dividend[11]~input_o $end
$var wire 1 e Divisor[3]~input_o $end
$var wire 1 f AdSb|Add0~11_combout $end
$var wire 1 g Divisor[2]~input_o $end
$var wire 1 h AdSb|Add0~8_combout $end
$var wire 1 i Dividend[10]~input_o $end
$var wire 1 j Divisor[1]~input_o $end
$var wire 1 k AdSb|Add0~5_combout $end
$var wire 1 l Dividend[9]~input_o $end
$var wire 1 m Divisor[0]~input_o $end
$var wire 1 n AdSb|Add0~0_combout $end
$var wire 1 o Dividend[8]~input_o $end
$var wire 1 p AdSb|Add0~2_cout $end
$var wire 1 q AdSb|Add0~3_combout $end
$var wire 1 r Rreg|Q[0]~0_combout $end
$var wire 1 s Dividend[6]~input_o $end
$var wire 1 t Dividend[3]~input_o $end
$var wire 1 u Dividend[1]~input_o $end
$var wire 1 v Qreg|Q~1_combout $end
$var wire 1 w DivCtrl|State.Shifts3~feeder_combout $end
$var wire 1 x DivCtrl|State.Shifts3~q $end
$var wire 1 y Qreg|Q[3]~0_combout $end
$var wire 1 z Dividend[2]~input_o $end
$var wire 1 { Qreg|Q~2_combout $end
$var wire 1 | Qreg|Q~3_combout $end
$var wire 1 } Dividend[4]~input_o $end
$var wire 1 ~ Qreg|Q~4_combout $end
$var wire 1 !! Dividend[5]~input_o $end
$var wire 1 "! Qreg|Q~5_combout $end
$var wire 1 #! Qreg|Q~6_combout $end
$var wire 1 $! Dividend[7]~input_o $end
$var wire 1 %! Qreg|Q~7_combout $end
$var wire 1 &! DivCtrl|State.Subs1~0_combout $end
$var wire 1 '! DivCtrl|State.Subs1~q $end
$var wire 1 (! DivCtrl|Rload~combout $end
$var wire 1 )! Rreg|Q[7]~11_combout $end
$var wire 1 *! AdSb|Add0~4 $end
$var wire 1 +! AdSb|Add0~6_combout $end
$var wire 1 ,! Rreg|Q[1]~1_combout $end
$var wire 1 -! AdSb|Add0~7 $end
$var wire 1 .! AdSb|Add0~9_combout $end
$var wire 1 /! Rreg|Q[2]~2_combout $end
$var wire 1 0! AdSb|Add0~10 $end
$var wire 1 1! AdSb|Add0~12_combout $end
$var wire 1 2! Rreg|Q[3]~3_combout $end
$var wire 1 3! AdSb|Add0~13 $end
$var wire 1 4! AdSb|Add0~15_combout $end
$var wire 1 5! Rreg|Q[4]~4_combout $end
$var wire 1 6! AdSb|Add0~16 $end
$var wire 1 7! AdSb|Add0~18_combout $end
$var wire 1 8! Rreg|Q[5]~5_combout $end
$var wire 1 9! AdSb|Add0~19 $end
$var wire 1 :! AdSb|Add0~21_combout $end
$var wire 1 ;! Rreg|Q[6]~6_combout $end
$var wire 1 <! AdSb|Add0~22 $end
$var wire 1 =! AdSb|Add0~24_combout $end
$var wire 1 >! Rreg|Q[7]~7_combout $end
$var wire 1 ?! Rreg|Q[8]~8_combout $end
$var wire 1 @! Mux1|Y[8]~0_combout $end
$var wire 1 A! DivCtrl|AddSub~0_combout $end
$var wire 1 B! AdSb|Add0~25 $end
$var wire 1 C! AdSb|Add0~26_combout $end
$var wire 1 D! DivCtrl|Selector2~0_combout $end
$var wire 1 E! DivCtrl|State.Shifts4~q $end
$var wire 1 F! DivCtrl|Selector4~0_combout $end
$var wire 1 G! DivCtrl|State.Ends~q $end
$var wire 1 H! DivCtrl|State~16_combout $end
$var wire 1 I! DivCtrl|State.Inits~q $end
$var wire 1 J! DivCtrl|Count~2_combout $end
$var wire 1 K! DivCtrl|Count[2]~1_combout $end
$var wire 1 L! DivCtrl|Count~0_combout $end
$var wire 1 M! DivCtrl|Count~3_combout $end
$var wire 1 N! DivCtrl|Selector0~1_combout $end
$var wire 1 O! DivCtrl|Selector1~0_combout $end
$var wire 1 P! DivCtrl|State.Shifts2~q $end
$var wire 1 Q! DivCtrl|State.Subs~q $end
$var wire 1 R! DivCtrl|Selector0~0_combout $end
$var wire 1 S! DivCtrl|Selector0~2_combout $end
$var wire 1 T! DivCtrl|State.Shifts1~q $end
$var wire 1 U! DivCtrl|Qbit~0_combout $end
$var wire 1 V! Dividend[0]~input_o $end
$var wire 1 W! Qreg|Q [7] $end
$var wire 1 X! Qreg|Q [6] $end
$var wire 1 Y! Qreg|Q [5] $end
$var wire 1 Z! Qreg|Q [4] $end
$var wire 1 [! Qreg|Q [3] $end
$var wire 1 \! Qreg|Q [2] $end
$var wire 1 ]! Qreg|Q [1] $end
$var wire 1 ^! Qreg|Q [0] $end
$var wire 1 _! Rreg|Q [8] $end
$var wire 1 `! Rreg|Q [7] $end
$var wire 1 a! Rreg|Q [6] $end
$var wire 1 b! Rreg|Q [5] $end
$var wire 1 c! Rreg|Q [4] $end
$var wire 1 d! Rreg|Q [3] $end
$var wire 1 e! Rreg|Q [2] $end
$var wire 1 f! Rreg|Q [1] $end
$var wire 1 g! Rreg|Q [0] $end
$var wire 1 h! DivCtrl|Count [2] $end
$var wire 1 i! DivCtrl|Count [1] $end
$var wire 1 j! DivCtrl|Count [0] $end
$var wire 1 k! Dreg|Q [7] $end
$var wire 1 l! Dreg|Q [6] $end
$var wire 1 m! Dreg|Q [5] $end
$var wire 1 n! Dreg|Q [4] $end
$var wire 1 o! Dreg|Q [3] $end
$var wire 1 p! Dreg|Q [2] $end
$var wire 1 q! Dreg|Q [1] $end
$var wire 1 r! Dreg|Q [0] $end
$upscope $end
$upscope $end
$enddefinitions $end
#0
$dumpvars
0!
b111111111111 "
b11111111 #
0$
0%
0-
0,
0+
0*
0)
0(
0'
0&
05
04
03
02
01
00
0/
0.
06
17
x8
19
1:
1;
0<
z=
z>
z?
0@
0A
0B
0C
0D
0E
0F
0G
0H
0I
0J
0K
0L
0M
0N
0O
0P
0Q
0R
0S
0T
0U
0V
1W
0X
0Y
0Z
0[
1\
0]
1^
0_
0`
0a
1b
0c
1d
1e
0f
1g
0h
1i
1j
0k
1l
1m
0n
1o
1p
0q
1r
1s
1t
1u
1v
0w
0x
1y
1z
1{
1|
1}
1~
1!!
1"!
1#!
1$!
1%!
1&!
0'!
1(!
1)!
0*!
0+!
1,!
1-!
0.!
1/!
00!
01!
12!
13!
04!
05!
06!
07!
08!
19!
0:!
0;!
0<!
0=!
0>!
0?!
0@!
0A!
1B!
0C!
0D!
0E!
0F!
0G!
1H!
0I!
0J!
1K!
0L!
0M!
0N!
0O!
0P!
0Q!
1R!
0S!
0T!
1U!
1V!
0^!
0]!
0\!
0[!
0Z!
0Y!
0X!
0W!
0g!
0f!
0e!
0d!
0c!
0b!
0a!
0`!
0_!
0j!
0i!
0h!
0r!
0q!
0p!
0o!
0n!
0m!
0l!
0k!
$end
#1000
1!
1Q
1R
1I!
1'!
1r!
1q!
1p!
1o!
1n!
1m!
1l!
1k!
1^!
1d!
1e!
1f!
1g!
1W!
1X!
1Y!
1Z!
1[!
1\!
1]!
1A
1B
1C
1D
1E
1F
1G
1H
1I
1J
1K
1@
0K!
0y
1n
1k
1h
1f
1c
1_
1]
1Z
11!
1.!
1+!
1q
1-
12
13
14
15
1&
1'
1(
1)
1*
1+
1,
1J!
02!
0/!
0,!
0&!
0r
1O!
0q
0+!
0.!
01!
16!
14!
09!
17!
1<!
1:!
0B!
1=!
12!
1/!
1,!
1r
07!
0:!
0=!
1C!
0r
0,!
0/!
02!
15!
18!
1;!
1>!
1@!
08!
0;!
0>!
1S!
0O!
#2000
0!
0Q
0R
#3000
1!
1Q
1R
1T!
1_!
0'!
1c!
0d!
0e!
0f!
0g!
0H
0I
0J
0K
1L
1K!
1U
0C!
0(!
06!
04!
03!
11!
10!
1.!
0-!
1+!
1*!
1q
11
02
03
04
05
0U!
1?!
0S!
1y
0@!
17!
16!
14!
01!
0.!
0+!
0?!
05!
12!
1/!
1,!
1r
07!
18!
15!
02!
0/!
0,!
08!
#4000
0!
0Q
0R
#5000
1$
1!
1Q
1T
1R
0T!
1j!
0_!
1S
0^!
1b!
0c!
1g!
1H
0L
1M
0@
0K!
0)!
0U
1C!
0R!
1A!
0p
0n
0k
0h
0f
0c
0_
0]
0Z
17!
04!
0*!
0q
0-
10
01
15
1U!
1L!
0J!
0v
0y
1@!
1(!
0C!
1-!
1.!
11!
14!
19!
07!
1:!
1=!
1S!
18!
05!
0r
1)!
0@!
00!
0.!
0<!
0:!
0S!
1O!
1/!
12!
15!
08!
1;!
1>!
13!
01!
1B!
0=!
0/!
0;!
06!
04!
1C!
02!
0>!
17!
1@!
05!
1S!
0O!
18!
#6000
0!
0Q
0R
#7000
1!
1Q
1R
1T!
1_!
0S
0g!
0H
1K!
1U
0C!
1R!
0A!
1p
1n
1k
1h
1f
1c
1_
1]
1Z
1*!
1q
05
0U!
1?!
1y
0@!
0(!
1C!
0-!
10!
1.!
03!
11!
16!
14!
07!
1<!
1:!
0B!
1=!
0?!
0S!
1r
1@!
0.!
01!
04!
09!
17!
0=!
0C!
1/!
12!
15!
08!
1;!
1>!
0:!
0@!
0/!
02!
05!
18!
0>!
0;!
#8000
0!
0Q
0R
#9000
1!
1Q
1R
0T!
1i!
0j!
0_!
1S
1a!
0b!
1g!
0]!
0A
1H
0M
1N
0K!
0)!
0U
1C!
0R!
1A!
0p
0n
0k
0h
0f
0c
0_
0]
0Z
1:!
07!
0*!
0q
1/
00
15
0,
1U!
1J!
0{
0y
1@!
1(!
0C!
1-!
1.!
11!
14!
17!
0<!
0:!
1=!
1S!
1;!
08!
0r
1)!
0@!
00!
0.!
1B!
0=!
0S!
1O!
1/!
12!
15!
18!
0;!
1>!
13!
01!
1C!
0/!
0>!
06!
04!
1@!
02!
1S!
0O!
19!
07!
05!
1:!
08!
1;!
#10000
0$
0!
0Q
0T
0R
#11000
1!
1Q
1R
1T!
1_!
0S
0g!
0H
1K!
1U
0C!
1R!
0A!
1p
1n
1k
1h
1f
1c
1_
1]
1Z
1*!
1q
05
0U!
1?!
1y
0@!
0(!
1C!
0-!
10!
1.!
03!
11!
16!
14!
09!
17!
0:!
0B!
1=!
0?!
0S!
1r
1@!
0.!
01!
04!
07!
1<!
1:!
0C!
1/!
12!
15!
18!
0;!
1>!
0=!
0@!
0/!
02!
05!
08!
1;!
0>!
#12000
0!
0Q
0R
#13000
1!
1Q
1R
0T!
1j!
0_!
1S
1`!
0a!
1g!
0\!
0B
1H
0N
1O
0K!
0)!
0U
1C!
0R!
1A!
0p
0n
0k
0h
0f
0c
0_
0]
0Z
1=!
0:!
0*!
0q
1.
0/
15
0+
1U!
1M!
0L!
0J!
1?!
0|
0y
1@!
1(!
0C!
1-!
1.!
11!
14!
17!
1:!
1B!
0=!
0?!
1S!
1>!
0;!
0r
1)!
0@!
00!
0.!
1C!
0S!
1O!
1/!
12!
15!
18!
1;!
0>!
13!
01!
1@!
0/!
1S!
0O!
06!
04!
02!
19!
07!
05!
0<!
0:!
08!
1=!
0;!
1>!
#14000
0!
0Q
0R
#15000
1!
1Q
1R
1T!
1_!
0S
0g!
0H
1K!
1U
0C!
1R!
0A!
1p
1n
1k
1h
1f
1c
1_
1]
1Z
1*!
1q
05
0U!
1?!
1y
0@!
0(!
1C!
0-!
10!
1.!
03!
11!
16!
14!
09!
17!
1<!
1:!
0=!
0S!
1r
1@!
0.!
01!
04!
07!
0:!
0B!
1=!
1/!
12!
15!
18!
1;!
0>!
0C!
0/!
02!
05!
08!
0;!
1>!
0@!
#16000
0!
0Q
0R
#17000
1!
1Q
1R
0T!
1h!
0i!
0j!
1S
0`!
1g!
0[!
0C
1H
0O
0K!
0)!
0U
0R!
1A!
0p
0n
0k
0h
0f
0c
0_
0]
0Z
0=!
0*!
0q
0.
15
0*
1U!
1J!
0?!
0~
0y
1(!
1C!
1-!
1.!
11!
14!
17!
1:!
1=!
1?!
1O!
0>!
0r
1)!
1@!
00!
0.!
1S!
0O!
1/!
12!
15!
18!
1;!
1>!
13!
01!
0/!
06!
04!
02!
19!
07!
05!
0<!
0:!
08!
1B!
0=!
0;!
0C!
0>!
0@!
0S!
1O!
#18000
0!
0Q
0R
#19000
1!
1Q
1R
1P!
0_!
0S
0g!
0H
1K!
1U
1C!
1R!
0A!
1p
1n
1k
1h
1f
1c
1_
1]
1Z
1*!
1q
05
0?!
1y
1@!
0(!
0C!
0-!
10!
1.!
03!
11!
16!
14!
09!
17!
1<!
1:!
0B!
1=!
0O!
1r
0@!
0.!
01!
04!
07!
0:!
0=!
1C!
1/!
12!
15!
18!
1;!
1>!
1@!
0/!
02!
05!
08!
0;!
0>!
#20000
0!
0Q
0R
#21000
1!
1Q
1R
1Q!
0P!
1j!
1^!
1g!
0Z!
0D
1H
1@
0R!
0K!
0)!
0U
0*!
0q
1-
15
0)
1L!
0J!
1v
0"!
1(!
0y
1+!
1S!
0r
1)!
1,!
#22000
0!
0Q
0R
#23000
1!
1Q
1R
1T!
0Q!
1_!
1f!
0g!
0H
1I
1K!
1U
1R!
0C!
1-!
0+!
1*!
1q
14
05
0U!
1?!
1y
0(!
0@!
1.!
0-!
1+!
0?!
0S!
0,!
1r
0.!
1/!
1,!
0/!
#24000
0!
0Q
0R
#25000
1!
1Q
1R
0T!
1i!
0j!
0_!
1S
0^!
1e!
0f!
1g!
0Y!
1]!
1A
0E
1H
0I
1J
0@
0K!
0)!
0U
1C!
0R!
1A!
0p
0n
0k
0h
0f
0c
0_
0]
0Z
1.!
0+!
0*!
0q
0-
13
04
15
0(
1,
1U!
1J!
0v
0#!
1{
0y
1@!
1(!
0C!
1-!
00!
0.!
11!
14!
17!
1:!
1=!
1S!
1/!
0,!
0r
1)!
0@!
1.!
13!
01!
0S!
1O!
0/!
12!
15!
18!
1;!
1>!
06!
04!
1/!
02!
19!
07!
05!
0<!
0:!
08!
1B!
0=!
0;!
1C!
0>!
1@!
1S!
0O!
#26000
0!
0Q
0R
#27000
1!
1Q
1R
1T!
1_!
0S
0g!
0H
1K!
1U
0C!
1R!
0A!
1p
1n
1k
1h
1f
1c
1_
1]
1Z
1*!
1q
05
0U!
1?!
1y
0@!
0(!
1C!
0-!
0.!
03!
11!
16!
14!
09!
17!
1<!
1:!
0B!
1=!
0?!
0S!
1r
1@!
10!
1.!
04!
07!
0:!
0=!
0C!
0/!
12!
15!
18!
1;!
1>!
01!
0@!
1/!
05!
08!
0;!
0>!
02!
#28000
0!
0Q
0R
#29000
1!
1Q
1R
0T!
1j!
0_!
1S
1d!
0e!
1g!
0X!
1\!
0]!
0A
1B
0F
1H
0J
1K
0K!
0)!
0U
1C!
0R!
1A!
0p
0n
0k
0h
0f
0c
0_
0]
0Z
11!
0.!
0*!
0q
12
03
15
0'
1+
0,
1U!
0M!
0L!
0J!
0%!
1|
0{
0y
1@!
1(!
0C!
1-!
1.!
13!
01!
14!
17!
1:!
1=!
1S!
12!
0/!
0r
1)!
0@!
00!
0.!
06!
04!
0S!
1O!
1/!
02!
15!
18!
1;!
1>!
11!
19!
07!
0/!
05!
0<!
0:!
12!
08!
1B!
0=!
0;!
1C!
0>!
1@!
1S!
0O!
#30000
0!
0Q
0R
#31000
1!
1Q
1R
1T!
1_!
0S
0g!
0H
1K!
1U
0C!
1R!
0A!
1p
1n
1k
1h
1f
1c
1_
1]
1Z
1*!
1q
05
0U!
1?!
1y
0@!
0(!
1C!
0-!
10!
1.!
01!
16!
14!
09!
17!
1<!
1:!
0B!
1=!
0?!
0S!
1r
1@!
0.!
03!
11!
07!
0:!
0=!
0C!
1/!
02!
15!
18!
1;!
1>!
04!
0@!
0/!
12!
08!
0;!
0>!
05!
#32000
0!
0Q
0R
#33000
1!
1Q
1R
0T!
0h!
0i!
0j!
0_!
1S
1c!
0d!
1g!
0W!
1[!
0\!
0B
1C
0G
1H
0K
1L
0K!
0)!
0U
1C!
0R!
1A!
0p
0n
0k
0h
0f
0c
0_
0]
0Z
14!
01!
0*!
0q
11
02
15
0&
1*
0+
1U!
1J!
1~
0|
0y
1@!
1N!
1(!
0C!
1-!
1.!
11!
06!
04!
17!
1:!
1=!
1S!
15!
02!
0r
1)!
0@!
00!
0.!
19!
07!
0S!
1D!
1/!
12!
05!
18!
1;!
1>!
13!
01!
0<!
0:!
0/!
08!
14!
1B!
0=!
02!
0;!
1C!
15!
0>!
1@!
0D!
1X
#34000
0!
0Q
0R
#35000
1!
1Q
1R
1_!
1Y
0S
0g!
0H
0C!
1R!
1*!
1q
05
1?!
1w
0@!
0N!
0-!
1+!
1O!
1D!
0X
1r
10!
1.!
0O!
0D!
1,!
03!
11!
1/!
04!
12!
05!
#36000
0!
0Q
0R
#37000
1!
1Q
1R
0_!
1x
0Y
0c!
1d!
1e!
1f!
1g!
1H
1I
1J
1K
0L
1C!
1y
0A!
0(!
1p
1n
1k
1h
1f
1c
1_
1]
1Z
16!
14!
13!
01!
00!
0.!
1-!
0+!
0*!
0q
01
12
13
14
15
0?!
0U!
1F!
0w
1@!
0C!
0)!
09!
1<!
1:!
0B!
1=!
15!
02!
0/!
0,!
0r
0@!
0:!
0=!
1C!
1;!
1>!
1@!
0;!
0>!
#38000
0!
0Q
0R
#39000
1!
1Q
1R
0x
1G!
1Z!
0[!
0C
1D
1P
0y
1%
1)
0*
1U!
1"!
0~
#40000
0!
0Q
0R
#41000
1!
1Q
1R
#42000
0!
0Q
0R
#43000
1!
1Q
1R
#44000
0!
0Q
0R
#45000
1!
1Q
1R
#46000
0!
0Q
0R
#47000
1!
1Q
1R
#48000
0!
0Q
0R
#49000
1!
1Q
1R
#50000
0!
0Q
0R
#51000
1!
1Q
1R
#52000
0!
0Q
0R
#53000
1!
1Q
1R
#54000
0!
0Q
0R
#55000
1!
1Q
1R
#56000
0!
0Q
0R
#57000
1!
1Q
1R
#58000
0!
0Q
0R
#59000
1!
1Q
1R
#60000
0!
0Q
0R
#61000
1!
1Q
1R
#62000
0!
0Q
0R
#63000
1!
1Q
1R
#64000
0!
0Q
0R
#65000
1!
1Q
1R
#66000
0!
0Q
0R
#67000
1!
1Q
1R
#68000
0!
0Q
0R
#69000
1!
1Q
1R
#70000
0!
0Q
0R
#71000
1!
1Q
1R
#72000
0!
0Q
0R
#73000
1!
1Q
1R
#74000
0!
0Q
0R
#75000
1!
1Q
1R
#76000
0!
0Q
0R
#77000
1!
1Q
1R
#78000
0!
0Q
0R
#79000
1!
1Q
1R
#80000
b11101111 #
b11101110 #
0!
0Q
0b
0m
0R
#81000
1!
1Q
1R
#82000
0!
0Q
0R
#83000
1!
1Q
1R
#84000
0!
0Q
0R
#85000
1$
1!
1Q
1T
1R
0H!
0F!
#86000
0!
0Q
0R
#87000
1!
1Q
1R
0I!
0G!
0P
1K!
0@!
1(!
1y
0%
0J!
05!
12!
1/!
1,!
1&!
1%!
1#!
1~
1|
1{
1v
1r
1H!
1)!
#88000
0!
0Q
0R
#89000
1!
1Q
1R
1I!
1'!
0r!
0n!
1^!
1W!
1X!
1Y!
1[!
1\!
1]!
1A
1B
1C
1E
1F
1G
1@
0K!
1@!
0y
0n
0c
1-
1&
1'
1(
1*
1+
1,
1J!
15!
02!
0/!
0,!
0&!
0r
1S!
1q
06!
04!
17!
1r
05!
18!
#90000
0$
0!
0Q
0T
0R
#91000
1!
1Q
1R
1T!
1_!
0'!
1b!
0d!
0e!
0f!
0I
0J
0K
1M
1K!
1U
0C!
0(!
19!
07!
03!
11!
10!
1.!
0-!
1+!
10
02
03
04
0U!
1?!
0S!
1y
0@!
1:!
16!
14!
01!
0.!
0?!
08!
12!
1/!
1,!
09!
17!
1;!
15!
02!
0/!
0:!
18!
0;!
#92000
0!
0Q
0R
#93000
1!
1Q
1R
0T!
1j!
0_!
1S
0^!
1a!
0b!
1f!
1I
0M
1N
0@
0K!
0)!
0U
1C!
0R!
1A!
0p
1n
0k
0h
0f
1c
0_
0]
0Z
1:!
07!
1-!
0+!
0-
1/
00
14
1U!
1L!
0J!
0v
0y
1@!
1(!
0C!
1*!
1+!
00!
11!
04!
17!
0<!
0:!
1=!
1S!
1;!
08!
0,!
1)!
0@!
0+!
13!
01!
1B!
0=!
0S!
1O!
1,!
12!
05!
18!
0;!
1>!
14!
1C!
0,!
02!
0>!
1@!
15!
1S!
0O!
#94000
0!
0Q
0R
#95000
1!
1Q
1R
1T!
1_!
0S
0a!
1b!
1c!
0f!
0I
1L
1M
0N
1K!
1U
0C!
1R!
0A!
1p
0n
1k
1h
1f
0c
1_
1]
1Z
1<!
1:!
19!
07!
06!
04!
0-!
1+!
0/
10
11
04
0U!
1?!
1y
0@!
0(!
1C!
0*!
0+!
10!
03!
11!
14!
0B!
0?!
0S!
1;!
08!
05!
1,!
1@!
1+!
01!
04!
0C!
0,!
12!
15!
0@!
1,!
02!
05!
#96000
0!
0Q
0R
#97000
1!
1Q
1R
0T!
1i!
0j!
0_!
1S
1a!
0c!
1f!
0]!
0A
1I
0L
1N
0K!
0)!
0U
1C!
0R!
1A!
0p
1n
0k
0h
0f
1c
0_
0]
0Z
0<!
0:!
16!
14!
1-!
0+!
1/
01
14
0,
1U!
1J!
0{
0y
1@!
1(!
0C!
1*!
1+!
00!
11!
04!
1:!
1B!
1S!
0;!
15!
0,!
1)!
0@!
0+!
13!
01!
1C!
0S!
1O!
1,!
12!
05!
1;!
14!
1@!
0,!
02!
1S!
0O!
15!
#98000
0!
0Q
0R
#99000
1!
1Q
1R
1T!
1_!
0S
0b!
1c!
0f!
0I
1L
0M
1K!
1U
0C!
1R!
0A!
1p
0n
1k
1h
1f
0c
1_
1]
1Z
09!
17!
06!
04!
0-!
1+!
00
11
04
0U!
1?!
1y
0@!
0(!
1C!
0*!
0+!
10!
03!
11!
14!
1<!
0B!
1=!
0?!
0S!
18!
05!
1,!
1@!
1+!
01!
04!
0=!
0C!
0,!
12!
15!
1>!
0@!
1,!
02!
05!
0>!
#100000
0!
0Q
0R
#101000
1!
1Q
1R
0T!
1j!
0_!
1S
1`!
0a!
1b!
0c!
1f!
0\!
0B
1I
0L
1M
0N
1O
0K!
0)!
0U
1C!
0R!
1A!
0p
1n
0k
0h
0f
1c
0_
0]
0Z
1=!
0:!
19!
07!
16!
14!
1-!
0+!
1.
0/
10
01
14
0+
1U!
1M!
0L!
0J!
1?!
0|
0y
1@!
1(!
0C!
1*!
1+!
00!
11!
04!
0<!
1B!
0=!
0?!
1S!
1>!
0;!
08!
15!
0,!
1)!
0@!
0+!
13!
01!
1=!
1C!
0S!
1O!
1,!
12!
05!
0>!
14!
1@!
0,!
02!
1>!
1S!
0O!
15!
#102000
0!
0Q
0R
#103000
1!
1Q
1R
1T!
1_!
0S
0b!
1c!
0f!
0I
1L
0M
1K!
1U
0C!
1R!
0A!
1p
0n
1k
1h
1f
0c
1_
1]
1Z
09!
17!
06!
04!
0-!
1+!
00
11
04
0U!
1?!
1y
0@!
0(!
1C!
0*!
0+!
10!
03!
11!
14!
1<!
0=!
0S!
18!
05!
1,!
1@!
1+!
01!
04!
0B!
1=!
0,!
12!
15!
0>!
0C!
1,!
02!
05!
1>!
0@!
#104000
0!
0Q
0R
#105000
1!
1Q
1R
0T!
1h!
0i!
0j!
1S
0`!
1b!
0c!
1f!
0[!
0C
1I
0L
1M
0O
0K!
0)!
0U
0R!
1A!
0p
1n
0k
0h
0f
1c
0_
0]
0Z
0=!
19!
07!
16!
14!
1-!
0+!
0.
10
01
14
0*
1U!
1J!
0?!
0~
0y
1(!
1C!
1*!
1+!
00!
11!
04!
0<!
1=!
1?!
1O!
0>!
08!
15!
0,!
1)!
1@!
0+!
13!
01!
1B!
0=!
1S!
0O!
1,!
12!
05!
1>!
14!
0C!
0,!
02!
0>!
0@!
15!
0S!
1O!
#106000
0!
0Q
0R
#107000
1!
1Q
1R
1P!
0_!
0S
0b!
1c!
0f!
0I
1L
0M
1K!
1U
1C!
1R!
0A!
1p
0n
1k
1h
1f
0c
1_
1]
1Z
09!
17!
06!
04!
0-!
1+!
00
11
04
0?!
1y
1@!
0(!
0C!
0*!
0+!
10!
03!
11!
14!
1<!
0B!
1=!
0O!
18!
05!
1,!
0@!
1+!
01!
04!
0=!
1C!
0,!
12!
15!
1>!
1@!
1,!
02!
05!
0>!
#108000
0!
0Q
0R
#109000
1!
1Q
1R
1Q!
0P!
1j!
1^!
1b!
0c!
1f!
0Z!
0D
1I
0L
1M
1@
0R!
0K!
0)!
0U
19!
07!
16!
14!
1-!
0+!
1-
10
01
14
0)
1L!
0J!
1v
0"!
1(!
0y
1:!
09!
17!
1.!
1S!
08!
15!
0,!
1)!
0:!
1;!
18!
1/!
0;!
#110000
0!
0Q
0R
#111000
1!
1Q
1R
1T!
0Q!
1_!
1c!
1e!
0f!
0I
1J
1L
1K!
1U
1R!
0C!
06!
04!
00!
0.!
0-!
1+!
11
13
04
0U!
1?!
1y
0(!
0@!
19!
07!
11!
10!
1.!
0?!
0S!
05!
0/!
1,!
1:!
01!
08!
12!
1/!
1;!
02!
#112000
0!
0Q
0R
#113000
1!
1Q
1R
0T!
1i!
0j!
0_!
1S
0^!
1a!
0c!
1d!
0e!
1f!
0Y!
1]!
1A
0E
1I
0J
1K
0L
1N
0@
0K!
0)!
0U
1C!
0R!
1A!
0p
1n
0k
0h
0f
1c
0_
0]
0Z
0<!
0:!
16!
14!
11!
0.!
1-!
0+!
0-
1/
01
12
03
14
0(
1,
1U!
1J!
0v
0#!
1{
0y
1@!
1(!
0C!
1*!
1+!
00!
13!
01!
04!
1:!
1B!
1S!
0;!
15!
12!
0/!
0,!
1)!
0@!
0+!
11!
14!
1C!
0S!
1O!
1,!
02!
05!
1;!
1@!
0,!
12!
15!
1S!
0O!
#114000
0!
0Q
0R
#115000
1!
1Q
1R
1T!
1_!
0S
0b!
1c!
0f!
0I
1L
0M
1K!
1U
0C!
1R!
0A!
1p
0n
1k
1h
1f
0c
1_
1]
1Z
09!
17!
06!
04!
0-!
1+!
00
11
04
0U!
1?!
1y
0@!
0(!
1C!
0*!
0+!
10!
01!
14!
1<!
0B!
1=!
0?!
0S!
18!
05!
1,!
1@!
1+!
03!
11!
0=!
0C!
0,!
02!
15!
1>!
04!
0@!
1,!
12!
0>!
05!
#116000
0!
0Q
0R
