LAB3/Lab3/simulation/qsim/Lab3.msim.vcd
$comment
	File created using the following command:
		vcd file Lab3.msim.vcd -direction
$end
$date
	Fri Feb 16 14:54:11 2024
$end
$version
	ModelSim Version 2020.1
$end
$timescale
	1ps
$end

$scope module Lab3_vlg_vec_tst $end
$var reg 1 ! Add_Sub $end
$var reg 1 " CLEAR $end
$var reg 1 # CLK $end
$var reg 1 $ IN $end
$var reg 1 % Out $end
$var reg 8 & X [7:0] $end
$var reg 8 ' Y [7:0] $end
$var wire 1 ( CAT [3] $end
$var wire 1 ) CAT [2] $end
$var wire 1 * CAT [1] $end
$var wire 1 + CAT [0] $end
$var wire 1 , CCout [3] $end
$var wire 1 - CCout [2] $end
$var wire 1 . CCout [1] $end
$var wire 1 / CCout [0] $end
$var wire 1 0 HEX [0] $end
$var wire 1 1 HEX [1] $end
$var wire 1 2 HEX [2] $end
$var wire 1 3 HEX [3] $end
$var wire 1 4 HEX [4] $end
$var wire 1 5 HEX [5] $end
$var wire 1 6 HEX [6] $end
$var wire 1 7 Rout [7] $end
$var wire 1 8 Rout [6] $end
$var wire 1 9 Rout [5] $end
$var wire 1 : Rout [4] $end
$var wire 1 ; Rout [3] $end
$var wire 1 < Rout [2] $end
$var wire 1 = Rout [1] $end
$var wire 1 > Rout [0] $end

$scope module i1 $end
$var wire 1 ? gnd $end
$var wire 1 @ vcc $end
$var wire 1 A unknown $end
$var tri1 1 B devclrn $end
$var tri1 1 C devpor $end
$var tri1 1 D devoe $end
$var wire 1 E CLK~input_o $end
$var wire 1 F ~QUARTUS_CREATED_GND~I_combout $end
$var wire 1 G ~QUARTUS_CREATED_UNVM~~busy $end
$var wire 1 H ~QUARTUS_CREATED_ADC1~~eoc $end
$var wire 1 I ~QUARTUS_CREATED_ADC2~~eoc $end
$var wire 1 J Rout[0]~output_o $end
$var wire 1 K Rout[1]~output_o $end
$var wire 1 L Rout[2]~output_o $end
$var wire 1 M Rout[3]~output_o $end
$var wire 1 N Rout[4]~output_o $end
$var wire 1 O Rout[5]~output_o $end
$var wire 1 P Rout[6]~output_o $end
$var wire 1 Q Rout[7]~output_o $end
$var wire 1 R CCout[0]~output_o $end
$var wire 1 S CCout[1]~output_o $end
$var wire 1 T CCout[2]~output_o $end
$var wire 1 U CCout[3]~output_o $end
$var wire 1 V HEX[6]~output_o $end
$var wire 1 W HEX[5]~output_o $end
$var wire 1 X HEX[4]~output_o $end
$var wire 1 Y HEX[3]~output_o $end
$var wire 1 Z HEX[2]~output_o $end
$var wire 1 [ HEX[1]~output_o $end
$var wire 1 \ HEX[0]~output_o $end
$var wire 1 ] CAT[0]~output_o $end
$var wire 1 ^ CAT[1]~output_o $end
$var wire 1 _ CAT[2]~output_o $end
$var wire 1 ` CAT[3]~output_o $end
$var wire 1 a Out~input_o $end
$var wire 1 b IN~input_o $end
$var wire 1 c IN~inputclkctrl_outclk $end
$var wire 1 d Y[0]~input_o $end
$var wire 1 e CLEAR~input_o $end
$var wire 1 f X[0]~input_o $end
$var wire 1 g regA|Q[0]~feeder_combout $end
$var wire 1 h attempt|GCLA4_1stStage|Sum[0]~0_combout $end
$var wire 1 i Add_Sub~input_o $end
$var wire 1 j attempt|GCLA4_1stStage|C~0_combout $end
$var wire 1 k X[1]~input_o $end
$var wire 1 l regA|Q[1]~feeder_combout $end
$var wire 1 m Y[1]~input_o $end
$var wire 1 n regB|Q[1]~feeder_combout $end
$var wire 1 o attempt|comb~0_combout $end
$var wire 1 p regR|Q[1]~feeder_combout $end
$var wire 1 q attempt|GCLA4_1stStage|C[2]~1_combout $end
$var wire 1 r Y[2]~input_o $end
$var wire 1 s X[2]~input_o $end
$var wire 1 t attempt|GCLA4_1stStage|Sum[2]~1_combout $end
$var wire 1 u regR|Q[2]~feeder_combout $end
$var wire 1 v Y[3]~input_o $end
$var wire 1 w regB|Q[3]~feeder_combout $end
$var wire 1 x attempt|GCLA4_1stStage|C7~0_combout $end
$var wire 1 y X[3]~input_o $end
$var wire 1 z attempt|GCLA4_1stStage|Sum[3]~2_combout $end
$var wire 1 { regR|Q[3]~feeder_combout $end
$var wire 1 | attempt|GCLA4_1stStage|Cout~0_combout $end
$var wire 1 } X[4]~input_o $end
$var wire 1 ~ Y[4]~input_o $end
$var wire 1 !! attempt|GCLA4_2ndStage|Sum[0]~0_combout $end
$var wire 1 "! regR|Q[4]~feeder_combout $end
$var wire 1 #! Y[5]~input_o $end
$var wire 1 $! attempt|GCLA4_2ndStage|C[1]~0_combout $end
$var wire 1 %! X[5]~input_o $end
$var wire 1 &! attempt|GCLA4_2ndStage|Sum[1]~1_combout $end
$var wire 1 '! regR|Q[5]~feeder_combout $end
$var wire 1 (! Y[6]~input_o $end
$var wire 1 )! regB|Q[6]~feeder_combout $end
$var wire 1 *! attempt|GCLA4_2ndStage|C[2]~1_combout $end
$var wire 1 +! X[6]~input_o $end
$var wire 1 ,! regA|Q[6]~feeder_combout $end
$var wire 1 -! attempt|GCLA4_2ndStage|Sum[2]~2_combout $end
$var wire 1 .! Y[7]~input_o $end
$var wire 1 /! X[7]~input_o $end
$var wire 1 0! regA|Q[7]~feeder_combout $end
$var wire 1 1! attempt|GCLA4_2ndStage|C7~0_combout $end
$var wire 1 2! attempt|GCLA4_2ndStage|Sum[3]~3_combout $end
$var wire 1 3! CCLogic|Zero~1_combout $end
$var wire 1 4! CCLogic|Zero~0_combout $end
$var wire 1 5! CCLogic|Zero~2_combout $end
$var wire 1 6! CCLogic|OVR~combout $end
$var wire 1 7! attempt|GCLA4_2ndStage|Cout~0_combout $end
$var wire 1 8! regR|Q [7] $end
$var wire 1 9! regR|Q [6] $end
$var wire 1 :! regR|Q [5] $end
$var wire 1 ;! regR|Q [4] $end
$var wire 1 <! regR|Q [3] $end
$var wire 1 =! regR|Q [2] $end
$var wire 1 >! regR|Q [1] $end
$var wire 1 ?! regR|Q [0] $end
$var wire 1 @! attempt|GCLA4_1stStage|G [3] $end
$var wire 1 A! attempt|GCLA4_1stStage|G [2] $end
$var wire 1 B! attempt|GCLA4_1stStage|G [1] $end
$var wire 1 C! attempt|GCLA4_1stStage|G [0] $end
$var wire 1 D! regCC|Q [3] $end
$var wire 1 E! regCC|Q [2] $end
$var wire 1 F! regCC|Q [1] $end
$var wire 1 G! regCC|Q [0] $end
$var wire 1 H! regA|Q [7] $end
$var wire 1 I! regA|Q [6] $end
$var wire 1 J! regA|Q [5] $end
$var wire 1 K! regA|Q [4] $end
$var wire 1 L! regA|Q [3] $end
$var wire 1 M! regA|Q [2] $end
$var wire 1 N! regA|Q [1] $end
$var wire 1 O! regA|Q [0] $end
$var wire 1 P! regB|Q [7] $end
$var wire 1 Q! regB|Q [6] $end
$var wire 1 R! regB|Q [5] $end
$var wire 1 S! regB|Q [4] $end
$var wire 1 T! regB|Q [3] $end
$var wire 1 U! regB|Q [2] $end
$var wire 1 V! regB|Q [1] $end
$var wire 1 W! regB|Q [0] $end
$var wire 1 X! attempt|GCLA4_1stStage|Sum [3] $end
$var wire 1 Y! attempt|GCLA4_1stStage|Sum [2] $end
$var wire 1 Z! attempt|GCLA4_1stStage|Sum [1] $end
$var wire 1 [! attempt|GCLA4_1stStage|Sum [0] $end
$upscope $end
$upscope $end
$enddefinitions $end
#0
$dumpvars
0!
1"
x#
0$
0%
b1010101 &
b10101010 '
0+
0*
0)
0(
0/
0.
0-
0,
06
05
04
03
02
01
00
0>
0=
0<
0;
0:
09
08
07
0?
1@
xA
1B
1C
1D
xE
0F
zG
zH
zI
0J
0K
0L
0M
0N
0O
0P
0Q
0R
0S
0T
0U
0V
0W
0X
0Y
0Z
0[
0\
0]
0^
0_
0`
0a
0b
0c
0d
1e
1f
1g
0h
0i
0j
0k
0l
1m
1n
0o
0p
0q
0r
1s
0t
0u
1v
1w
0x
0y
0z
0{
0|
1}
0~
0!!
0"!
1#!
0$!
0%!
0&!
0'!
0(!
0)!
0*!
1+!
1,!
0-!
1.!
0/!
00!
01!
02!
03!
04!
15!
06!
07!
0?!
0>!
0=!
0<!
0;!
0:!
09!
08!
0C!
zB!
zA!
z@!
0G!
0F!
0E!
0D!
0O!
0N!
0M!
0L!
0K!
0J!
0I!
0H!
0W!
0V!
0U!
0T!
0S!
0R!
0Q!
0P!
z[!
0Z!
zY!
zX!
$end
#5000
1$
1b
1c
1P!
1I!
1R!
1K!
1T!
1M!
1V!
1O!
12!
1-!
1&!
1!!
1z
1t
1o
05!
1h
13!
14!
1Z!
1'!
1"!
1{
1u
1p
#10000
1%
0$
0b
0c
1a
1F!
18!
19!
1:!
1;!
1<!
1=!
1>!
1?!
1J
1K
1L
1M
1N
1O
1P
1Q
1S
1.
17
18
19
1:
1;
1<
1=
1>
#15000
0%
0a
#20000
1!
1i
02!
11!
0-!
0&!
1$!
0!!
0z
1x
0t
0o
1C!
03!
12!
1&!
1z
16!
0'!
0"!
0{
0u
13!
1'!
1{
#25000
1%
1a
1E!
09!
0;!
0=!
0L
0N
0P
1T
1-
08
0:
0<
#30000
0%
0a
#40000
0"
b10101 &
b101 &
b1 &
b0 &
b101010 '
b1010 '
b10 '
b0 '
0!
0i
0+!
0}
0s
0f
0.!
0#!
0v
0m
0e
02!
01!
1-!
1*!
0&!
0$!
1!!
1|
0z
0x
1t
1o
0C!
17!
06!
0,!
0g
0w
0n
12!
11!
0-!
0*!
1&!
1$!
0!!
0|
1z
07!
0'!
1"!
0{
1u
02!
01!
1-!
1*!
0&!
0$!
1!!
17!
1'!
0"!
1{
12!
11!
0-!
0*!
1&!
07!
0'!
1"!
02!
01!
1-!
17!
1'!
12!
07!
0O!
0V!
0M!
0T!
0K!
0R!
0I!
0P!
0?!
0>!
0<!
0:!
08!
0F!
0E!
0T
0S
0Q
0O
0M
0K
0J
0o
0t
0z
0!!
0&!
0-!
02!
0>
0=
0;
09
07
0.
0-
0h
0Z!
03!
0u
0{
0"!
0'!
04!
0p
15!
#50000
b100000 &
b101000 &
b101010 &
b1 '
1"
b1101010 &
b1111010 &
b1111110 &
b1111111 &
1e
1+!
1%!
1}
1y
1s
1k
1f
1d
1,!
1l
1g
#55000
1$
1b
1c
1I!
1J!
1K!
1L!
1M!
1N!
1O!
1W!
1-!
1&!
1!!
1z
1t
1Z!
1C!
13!
14!
1q
0Z!
1'!
1"!
1{
1u
1p
1x
0t
05!
0p
1|
0z
0u
1$!
0!!
04!
0{
1*!
0&!
0"!
11!
0-!
0'!
12!
03!
16!
13!
15!
05!
#60000
1%
0$
0b
0c
1a
1E!
1F!
18!
1Q
1S
1T
1-
1.
17
#65000
0%
0a
#70000
1!
1i
02!
1-!
1&!
1!!
1z
1t
1o
1j
0C!
17!
06!
14!
1Z!
1'!
1"!
1{
1u
1p
#75000
1%
1a
1D!
0E!
0F!
08!
19!
1:!
1;!
1<!
1=!
1>!
1K
1L
1M
1N
1O
1P
0Q
0S
0T
1U
1,
0-
0.
07
18
19
1:
1;
1<
1=
#80000
0%
0a
#90000
b1011111 &
b1010111 &
b1010101 &
b0 '
0"
b10101 &
b101 &
b1 &
b0 &
0!
0i
0e
0+!
0%!
0}
0y
0s
0k
0f
0d
12!
0-!
0&!
0!!
0z
0t
0o
0j
1C!
07!
16!
0,!
0l
0g
0Z!
0'!
0"!
0{
0u
04!
0p
0W!
0O!
0N!
0M!
0L!
0K!
0J!
0I!
0>!
0=!
0<!
0;!
0:!
09!
0D!
0U
0P
0O
0N
0M
0L
0K
0C!
0q
1Z!
0x
1t
0|
1z
0$!
1!!
0*!
1&!
01!
1-!
0=
0<
0;
0:
09
08
0,
0Z!
0t
14!
0z
0!!
0&!
0-!
02!
1p
1u
1{
1"!
1'!
06!
04!
03!
0p
0u
0{
0"!
0'!
15!
#100000
b1000000 '
b1010000 '
b1010100 '
b11010100 '
b11110100 '
b11111100 '
b11111110 '
b100000 &
b101000 &
b101010 &
b11111111 '
1"
b1101010 &
b1111010 &
b1111110 &
b1111111 &
1e
1.!
1(!
1#!
1~
1v
1r
1m
1d
1+!
1%!
1}
1y
1s
1k
1f
1)!
1w
1n
1,!
1l
1g
#105000
1$
1b
1c
1P!
1I!
1Q!
1J!
1R!
1S!
1K!
1L!
1T!
1M!
1U!
1V!
1N!
1O!
1W!
12!
11!
1*!
1$!
1|
1x
1o
1Z!
1C!
13!
02!
1-!
1&!
1!!
1z
1q
14!
17!
1p
1t
05!
1'!
1"!
1{
1u
#110000
1%
0$
0b
0c
1a
1D!
19!
1:!
1;!
1<!
1=!
1>!
1K
1L
1M
1N
1O
1P
1U
1,
18
19
1:
1;
1<
1=
#115000
0%
0a
#120000
1!
1i
12!
0-!
0&!
0!!
0z
0t
0o
1j
0C!
07!
16!
0Z!
0'!
0"!
0{
0u
04!
0p
#125000
1%
1a
0D!
1E!
1F!
18!
09!
0:!
0;!
0<!
0=!
0>!
0K
0L
0M
0N
0O
0P
1Q
1S
1T
0U
0,
1-
1.
17
08
09
0:
0;
0<
0=
#130000
0%
0a
#140000
b10111111 '
b10101111 '
b10101011 '
b101011 '
b1011 '
b11 '
b1 '
b1011111 &
b1010111 &
b1010101 &
b0 '
0"
b10101 &
b101 &
b1 &
b0 &
0!
0i
0e
0.!
0(!
0#!
0~
0v
0r
0m
0d
0+!
0%!
0}
0y
0s
0k
0f
02!
1-!
1&!
1!!
1z
1t
1o
0j
1C!
17!
06!
0)!
0w
0n
0,!
0l
0g
14!
1Z!
1'!
1"!
1{
1u
1p
0W!
0O!
0N!
0V!
0U!
0M!
0T!
0L!
0K!
0S!
0R!
0J!
0Q!
0I!
0P!
08!
0F!
0E!
0T
0S
0Q
0C!
0Z!
0o
0x
0|
0$!
0*!
01!
12!
07
0.
0-
07!
16!
0q
0z
0!!
0&!
0-!
02!
0p
06!
0t
03!
0{
0"!
0'!
04!
0u
15!
#150000
b1000000 '
b1010000 '
b1010100 '
b11010100 '
b11011100 '
b100000 &
b100010 &
b11011101 '
1"
b1100010 &
b1100110 &
1e
1.!
1(!
1~
1v
1r
1d
1+!
1%!
1s
1k
1)!
1w
1,!
1l
#155000
1$
1b
1c
1P!
1I!
1Q!
1J!
1S!
1T!
1M!
1U!
1N!
1W!
12!
11!
1&!
1!!
1z
1x
1Z!
05!
1h
13!
02!
14!
1|
0z
17!
1'!
1"!
1{
1p
1$!
0!!
0{
1*!
0&!
0"!
1-!
03!
0'!
13!
#160000
1%
0$
0b
0c
1a
1D!
19!
1>!
1?!
1J
1K
1P
1U
1,
18
1=
1>
#165000
0%
0a
#170000
1!
1i
12!
0-!
1&!
0$!
1!!
0|
1z
0x
1t
1o
07!
16!
0&!
0!!
0z
1q
0Z!
1'!
1"!
1{
1u
1x
0t
0'!
0"!
0{
0p
1z
04!
0u
14!
1{
#175000
1%
1a
0D!
1E!
1F!
18!
09!
1<!
0>!
0K
1M
0P
1Q
1S
1T
0U
0,
1-
1.
17
08
1;
0=
#180000
0%
0a
#190000
b10011101 '
b10001101 '
b10001001 '
b1001 '
b1 '
b1000110 &
b1000100 &
b0 '
0"
b100 &
b0 &
0!
0i
0e
0.!
0(!
0~
0v
0r
0d
0+!
0%!
0s
0k
02!
1-!
0*!
1&!
1!!
1|
0z
1t
0o
17!
06!
0)!
0w
0,!
0l
0-!
1$!
0!!
0q
1Z!
1'!
1"!
0{
1u
1*!
0&!
0t
0"!
1p
1-!
03!
0'!
0u
13!
0W!
0N!
0U!
0M!
0T!
0S!
0J!
0Q!
0I!
0P!
0?!
0<!
08!
0F!
0E!
0T
0S
0Q
0M
0J
0Z!
0x
0|
1z
0$!
1!!
0*!
1&!
01!
12!
0>
0;
07
0.
0-
0h
07!
16!
0z
0!!
0&!
0-!
02!
0p
1{
1"!
1'!
06!
04!
03!
0{
0"!
0'!
15!
#200000
b10000000 &
b100000 '
b100010 '
b10001000 &
b110010 '
b10101000 &
b10101010 &
b110011 '
1"
1e
1/!
1%!
1y
1k
1#!
1~
1m
1d
10!
1l
1n
#205000
1$
1b
1c
1H!
1J!
1R!
1S!
1L!
1V!
1N!
1W!
12!
1*!
1!!
1z
1o
1Z!
05!
1h
13!
1-!
14!
1q
0Z!
1"!
1{
1p
1t
0p
1u
#210000
1%
0$
0b
0c
1a
1F!
18!
19!
1;!
1<!
1=!
1?!
1J
1L
1M
1N
1P
1Q
1S
1.
17
18
1:
1;
1<
1>
#215000
0%
0a
#220000
1!
1i
02!
11!
0-!
0*!
1&!
0!!
1|
0z
1x
0t
0o
17!
16!
12!
01!
1-!
1!!
04!
1z
0q
1Z!
06!
1'!
0"!
0{
0u
02!
14!
0x
1t
16!
1"!
1{
1p
0z
1u
0{
#225000
1%
1a
1D!
1E!
0F!
08!
1:!
0<!
1>!
1K
0M
1O
0Q
0S
1T
1U
1,
1-
0.
07
19
0;
1=
#230000
0%
0a
#240000
b101010 &
b10011 '
b10001 '
b100010 &
b1 '
b10 &
b0 &
b0 '
0"
0!
0i
0e
0/!
0%!
0y
0k
0#!
0~
0m
0d
12!
0-!
1*!
0&!
1$!
0!!
0|
1z
0t
1o
07!
06!
00!
0l
0n
1-!
1&!
0$!
1!!
1q
0Z!
0'!
0"!
1{
0u
0&!
1t
1'!
1"!
0p
0'!
1u
0W!
0N!
0V!
0L!
0S!
0R!
0J!
0H!
0?!
0>!
0=!
0;!
0:!
09!
0E!
0D!
0U
0T
0P
0O
0N
0L
0K
0J
0q
1Z!
0o
0z
0!!
0*!
02!
0>
0=
0<
0:
09
08
0-
0,
0h
0t
0Z!
0-!
1p
0{
0"!
04!
03!
0u
0p
15!
#250000
b10000 &
b10001 &
b1000000 '
b1000100 '
b11000100 '
b11001100 '
b10010001 &
b11101100 '
b11101110 '
b10011001 &
1"
1e
1/!
1}
1y
1f
1.!
1(!
1#!
1v
1r
1m
10!
1g
1)!
1w
1n
#255000
1$
1b
1c
1H!
1P!
1Q!
1R!
1K!
1L!
1T!
1U!
1V!
1O!
1-!
1&!
1!!
1|
1t
1o
17!
16!
05!
1h
13!
1$!
0!!
14!
1Z!
1'!
1"!
1u
1*!
0&!
0"!
1p
11!
0-!
0'!
12!
03!
06!
13!
#260000
1%
0$
0b
0c
1a
1D!
1F!
18!
1=!
1>!
1?!
1J
1K
1L
1Q
1S
1U
1,
1.
17
1<
1=
1>
#265000
0%
0a
#270000
1!
1i
02!
01!
1-!
0*!
1&!
1!!
0|
1z
0t
0o
1C!
12!
0-!
0!!
07!
1'!
1"!
1{
0u
0"!
#275000
1%
1a
0D!
1:!
1<!
0=!
0L
1M
1O
0U
0,
19
1;
0<
#280000
0%
0a
#290000
b10001001 &
b10001000 &
b10101110 '
b10101010 '
b101010 '
b100010 '
b1000 &
b10 '
b0 '
b0 &
0"
0!
0i
0e
0/!
0}
0y
0f
0.!
0(!
0#!
0v
0r
0m
02!
1-!
1*!
0&!
0$!
1!!
1|
0z
1t
1o
0C!
17!
16!
00!
0g
0)!
0w
0n
11!
0-!
0*!
1&!
1$!
0!!
0'!
1"!
0{
1u
12!
01!
1-!
1*!
0&!
06!
1'!
0"!
02!
11!
0-!
16!
0'!
03!
12!
06!
13!
0O!
0V!
0U!
0T!
0L!
0K!
0R!
0Q!
0P!
0H!
0?!
0>!
0<!
0:!
08!
0F!
0S
0Q
0O
0M
0K
0J
0o
0t
0|
0$!
1!!
0*!
1&!
01!
1-!
0>
0=
0;
09
07
0.
0h
07!
16!
0Z!
0!!
0&!
0-!
02!
0u
1"!
1'!
06!
04!
03!
0p
0"!
0'!
15!
#300000
b10000 '
b100000 &
b100010 &
b1010000 '
b1010100 '
b11010100 '
b11011100 '
b10100010 &
b11111100 '
b11111110 '
b10101010 &
1"
1e
1.!
1(!
1#!
1~
1v
1r
1m
1/!
1%!
1y
1k
1)!
1w
1n
10!
1l
#305000
1$
1b
1c
1H!
1P!
1Q!
1J!
1R!
1S!
1L!
1T!
1U!
1V!
1N!
1-!
1*!
1!!
1|
1t
1o
1Z!
17!
16!
13!
11!
0-!
1$!
0!!
14!
1q
0Z!
1"!
1u
1p
12!
03!
1&!
1x
0t
05!
06!
0"!
0p
13!
1z
04!
1'!
0u
14!
1{
#310000
1%
0$
0b
0c
1a
1D!
1F!
18!
1:!
1<!
1M
1O
1Q
1S
1U
1,
1.
17
19
1;
#315000
0%
0a
#320000
1!
1i
02!
01!
1-!
0&!
0$!
1!!
0z
0x
1t
0o
1j
12!
0*!
1&!
0|
1z
07!
0'!
1"!
0{
1u
0-!
0!!
1'!
1{
0"!
#325000
1%
1a
0D!
1=!
1L
0U
0,
1<
#330000
0%
0a
#340000
b11101110 '
b10001010 &
b10001000 &
b10101110 '
b10101010 '
b101010 '
b100010 '
b1000 &
b10 '
b0 '
b0 &
0"
0!
0i
0e
0.!
0(!
0#!
0~
0v
0r
0m
0/!
0%!
0y
0k
02!
1-!
1*!
0&!
1!!
1|
0z
1x
0t
1o
0j
17!
16!
0)!
0w
0n
00!
0l
11!
0-!
1$!
0!!
04!
1z
0'!
1"!
0{
0u
12!
03!
1&!
14!
06!
0"!
1{
13!
1'!
0N!
0V!
0U!
0T!
0L!
0S!
0R!
0J!
0Q!
0P!
0H!
0=!
0<!
0:!
08!
0F!
0S
0Q
0O
0M
0L
0q
1Z!
0o
0x
1t
0|
0$!
1!!
0*!
01!
1-!
0<
0;
09
07
0.
07!
16!
0t
0Z!
0z
0!!
0&!
0-!
02!
1p
1u
1"!
06!
04!
03!
0u
0p
0{
0"!
0'!
15!
#350000
b1000000 &
b1000100 &
b1010100 &
b1010101 &
b1000000 '
b1000100 '
b11000100 '
b11001100 '
b11010101 &
b11011101 &
1"
1e
1/!
1+!
1}
1y
1s
1f
1.!
1(!
1v
1r
10!
1,!
1g
1)!
1w
#355000
1$
1b
1c
1H!
1P!
1I!
1Q!
1K!
1L!
1T!
1M!
1U!
1O!
11!
1!!
1|
1x
17!
16!
05!
1h
12!
13!
1$!
0!!
1z
06!
1"!
1&!
14!
0"!
1{
1'!
#360000
1%
0$
0b
0c
1a
1D!
1F!
18!
1:!
1<!
1?!
1J
1M
1O
1Q
1S
1U
1,
1.
17
19
1;
1>
#365000
0%
0a
#370000
1!
1i
02!
01!
1-!
1*!
0&!
1!!
0z
0x
1t
1o
1C!
12!
11!
0-!
0|
1z
1q
07!
0'!
1"!
0{
1u
02!
0!!
1x
0t
17!
1{
03!
1|
0z
0"!
0u
1!!
04!
0{
13!
1"!
#375000
1%
1a
0F!
08!
0:!
1;!
0<!
0M
1N
0O
0Q
0S
0.
07
09
1:
0;
#380000
0%
0a
#390000
b10011101 &
b10011001 &
b10001001 &
b10001000 &
b10001100 '
b10001000 '
b1000 '
b0 '
b1000 &
b0 &
0"
0!
0i
0e
0/!
0+!
0}
0y
0s
0f
0.!
0(!
0v
0r
12!
1-!
0*!
1&!
0!!
1z
1t
0o
0C!
00!
0,!
0g
0)!
0w
0-!
14!
0q
1'!
0"!
1{
1u
0t
0u
0O!
0U!
0M!
0T!
0L!
0K!
0Q!
0I!
0P!
0H!
0?!
0;!
0D!
0U
0N
0J
0x
0|
0$!
1!!
01!
0>
0:
0,
0h
07!
16!
0z
0!!
0&!
02!
1"!
06!
04!
03!
0{
0"!
0'!
15!
